latitude,longitude
65.5000000000000,-166.500000000000
61.5000000000000,-165.500000000000
65.5000000000000,-165.500000000000
68.5000000000000,-165.500000000000
61.5000000000000,-164.500000000000
62.5000000000000,-164.500000000000
65.5000000000000,-164.500000000000
66.5000000000000,-164.500000000000
68.5000000000000,-164.500000000000
60.5000000000000,-163.500000000000
61.5000000000000,-163.500000000000
62.5000000000000,-163.500000000000
65.5000000000000,-163.500000000000
67.5000000000000,-163.500000000000
68.5000000000000,-163.500000000000
60.5000000000000,-162.500000000000
61.5000000000000,-162.500000000000
62.5000000000000,-162.500000000000
65.5000000000000,-162.500000000000
67.5000000000000,-162.500000000000
68.5000000000000,-162.500000000000
69.5000000000000,-162.500000000000
55.5000000000000,-161.500000000000
59.5000000000000,-161.500000000000
60.5000000000000,-161.500000000000
61.5000000000000,-161.500000000000
62.5000000000000,-161.500000000000
65.5000000000000,-161.500000000000
66.5000000000000,-161.500000000000
67.5000000000000,-161.500000000000
68.5000000000000,-161.500000000000
69.5000000000000,-161.500000000000
59.5000000000000,-160.500000000000
60.5000000000000,-160.500000000000
61.5000000000000,-160.500000000000
62.5000000000000,-160.500000000000
63.5000000000000,-160.500000000000
64.5000000000000,-160.500000000000
65.5000000000000,-160.500000000000
66.5000000000000,-160.500000000000
67.5000000000000,-160.500000000000
68.5000000000000,-160.500000000000
69.5000000000000,-160.500000000000
56.5000000000000,-159.500000000000
59.5000000000000,-159.500000000000
60.5000000000000,-159.500000000000
61.5000000000000,-159.500000000000
62.5000000000000,-159.500000000000
63.5000000000000,-159.500000000000
64.5000000000000,-159.500000000000
65.5000000000000,-159.500000000000
66.5000000000000,-159.500000000000
67.5000000000000,-159.500000000000
68.5000000000000,-159.500000000000
69.5000000000000,-159.500000000000
56.5000000000000,-158.500000000000
59.5000000000000,-158.500000000000
60.5000000000000,-158.500000000000
61.5000000000000,-158.500000000000
62.5000000000000,-158.500000000000
63.5000000000000,-158.500000000000
64.5000000000000,-158.500000000000
65.5000000000000,-158.500000000000
66.5000000000000,-158.500000000000
67.5000000000000,-158.500000000000
68.5000000000000,-158.500000000000
69.5000000000000,-158.500000000000
57.5000000000000,-157.500000000000
58.5000000000000,-157.500000000000
59.5000000000000,-157.500000000000
60.5000000000000,-157.500000000000
61.5000000000000,-157.500000000000
62.5000000000000,-157.500000000000
63.5000000000000,-157.500000000000
64.5000000000000,-157.500000000000
65.5000000000000,-157.500000000000
66.5000000000000,-157.500000000000
67.5000000000000,-157.500000000000
68.5000000000000,-157.500000000000
69.5000000000000,-157.500000000000
57.5000000000000,-156.500000000000
58.5000000000000,-156.500000000000
59.5000000000000,-156.500000000000
60.5000000000000,-156.500000000000
61.5000000000000,-156.500000000000
62.5000000000000,-156.500000000000
63.5000000000000,-156.500000000000
64.5000000000000,-156.500000000000
65.5000000000000,-156.500000000000
66.5000000000000,-156.500000000000
67.5000000000000,-156.500000000000
68.5000000000000,-156.500000000000
69.5000000000000,-156.500000000000
58.5000000000000,-155.500000000000
59.5000000000000,-155.500000000000
60.5000000000000,-155.500000000000
61.5000000000000,-155.500000000000
62.5000000000000,-155.500000000000
63.5000000000000,-155.500000000000
64.5000000000000,-155.500000000000
65.5000000000000,-155.500000000000
66.5000000000000,-155.500000000000
67.5000000000000,-155.500000000000
68.5000000000000,-155.500000000000
69.5000000000000,-155.500000000000
58.5000000000000,-154.500000000000
59.5000000000000,-154.500000000000
60.5000000000000,-154.500000000000
61.5000000000000,-154.500000000000
62.5000000000000,-154.500000000000
63.5000000000000,-154.500000000000
64.5000000000000,-154.500000000000
65.5000000000000,-154.500000000000
66.5000000000000,-154.500000000000
67.5000000000000,-154.500000000000
68.5000000000000,-154.500000000000
69.5000000000000,-154.500000000000
57.5000000000000,-153.500000000000
60.5000000000000,-153.500000000000
61.5000000000000,-153.500000000000
62.5000000000000,-153.500000000000
63.5000000000000,-153.500000000000
64.5000000000000,-153.500000000000
65.5000000000000,-153.500000000000
66.5000000000000,-153.500000000000
67.5000000000000,-153.500000000000
68.5000000000000,-153.500000000000
69.5000000000000,-153.500000000000
60.5000000000000,-152.500000000000
61.5000000000000,-152.500000000000
62.5000000000000,-152.500000000000
63.5000000000000,-152.500000000000
64.5000000000000,-152.500000000000
65.5000000000000,-152.500000000000
66.5000000000000,-152.500000000000
67.5000000000000,-152.500000000000
68.5000000000000,-152.500000000000
69.5000000000000,-152.500000000000
61.5000000000000,-151.500000000000
62.5000000000000,-151.500000000000
63.5000000000000,-151.500000000000
64.5000000000000,-151.500000000000
65.5000000000000,-151.500000000000
66.5000000000000,-151.500000000000
67.5000000000000,-151.500000000000
68.5000000000000,-151.500000000000
69.5000000000000,-151.500000000000
59.5000000000000,-150.500000000000
60.5000000000000,-150.500000000000
61.5000000000000,-150.500000000000
62.5000000000000,-150.500000000000
63.5000000000000,-150.500000000000
64.5000000000000,-150.500000000000
65.5000000000000,-150.500000000000
66.5000000000000,-150.500000000000
67.5000000000000,-150.500000000000
68.5000000000000,-150.500000000000
69.5000000000000,-150.500000000000
60.5000000000000,-149.500000000000
61.5000000000000,-149.500000000000
62.5000000000000,-149.500000000000
63.5000000000000,-149.500000000000
64.5000000000000,-149.500000000000
65.5000000000000,-149.500000000000
66.5000000000000,-149.500000000000
67.5000000000000,-149.500000000000
68.5000000000000,-149.500000000000
69.5000000000000,-149.500000000000
60.5000000000000,-148.500000000000
61.5000000000000,-148.500000000000
62.5000000000000,-148.500000000000
63.5000000000000,-148.500000000000
64.5000000000000,-148.500000000000
65.5000000000000,-148.500000000000
66.5000000000000,-148.500000000000
67.5000000000000,-148.500000000000
68.5000000000000,-148.500000000000
69.5000000000000,-148.500000000000
61.5000000000000,-147.500000000000
62.5000000000000,-147.500000000000
63.5000000000000,-147.500000000000
64.5000000000000,-147.500000000000
65.5000000000000,-147.500000000000
66.5000000000000,-147.500000000000
67.5000000000000,-147.500000000000
68.5000000000000,-147.500000000000
69.5000000000000,-147.500000000000
61.5000000000000,-146.500000000000
62.5000000000000,-146.500000000000
63.5000000000000,-146.500000000000
64.5000000000000,-146.500000000000
65.5000000000000,-146.500000000000
66.5000000000000,-146.500000000000
67.5000000000000,-146.500000000000
68.5000000000000,-146.500000000000
69.5000000000000,-146.500000000000
60.5000000000000,-145.500000000000
61.5000000000000,-145.500000000000
62.5000000000000,-145.500000000000
63.5000000000000,-145.500000000000
64.5000000000000,-145.500000000000
65.5000000000000,-145.500000000000
66.5000000000000,-145.500000000000
67.5000000000000,-145.500000000000
68.5000000000000,-145.500000000000
69.5000000000000,-145.500000000000
60.5000000000000,-144.500000000000
61.5000000000000,-144.500000000000
62.5000000000000,-144.500000000000
63.5000000000000,-144.500000000000
64.5000000000000,-144.500000000000
65.5000000000000,-144.500000000000
66.5000000000000,-144.500000000000
67.5000000000000,-144.500000000000
68.5000000000000,-144.500000000000
69.5000000000000,-144.500000000000
60.5000000000000,-143.500000000000
61.5000000000000,-143.500000000000
62.5000000000000,-143.500000000000
63.5000000000000,-143.500000000000
64.5000000000000,-143.500000000000
65.5000000000000,-143.500000000000
66.5000000000000,-143.500000000000
67.5000000000000,-143.500000000000
68.5000000000000,-143.500000000000
69.5000000000000,-143.500000000000
60.5000000000000,-142.500000000000
61.5000000000000,-142.500000000000
62.5000000000000,-142.500000000000
63.5000000000000,-142.500000000000
64.5000000000000,-142.500000000000
65.5000000000000,-142.500000000000
66.5000000000000,-142.500000000000
67.5000000000000,-142.500000000000
68.5000000000000,-142.500000000000
69.5000000000000,-142.500000000000
60.5000000000000,-141.500000000000
61.5000000000000,-141.500000000000
62.5000000000000,-141.500000000000
63.5000000000000,-141.500000000000
64.5000000000000,-141.500000000000
65.5000000000000,-141.500000000000
66.5000000000000,-141.500000000000
67.5000000000000,-141.500000000000
68.5000000000000,-141.500000000000
69.5000000000000,-141.500000000000
60.5000000000000,-140.500000000000
61.5000000000000,-140.500000000000
62.5000000000000,-140.500000000000
63.5000000000000,-140.500000000000
64.5000000000000,-140.500000000000
65.5000000000000,-140.500000000000
66.5000000000000,-140.500000000000
67.5000000000000,-140.500000000000
68.5000000000000,-140.500000000000
69.5000000000000,-140.500000000000
60.5000000000000,-139.500000000000
61.5000000000000,-139.500000000000
62.5000000000000,-139.500000000000
63.5000000000000,-139.500000000000
64.5000000000000,-139.500000000000
65.5000000000000,-139.500000000000
66.5000000000000,-139.500000000000
67.5000000000000,-139.500000000000
68.5000000000000,-139.500000000000
69.5000000000000,-139.500000000000
59.5000000000000,-138.500000000000
60.5000000000000,-138.500000000000
61.5000000000000,-138.500000000000
62.5000000000000,-138.500000000000
63.5000000000000,-138.500000000000
64.5000000000000,-138.500000000000
65.5000000000000,-138.500000000000
66.5000000000000,-138.500000000000
67.5000000000000,-138.500000000000
68.5000000000000,-138.500000000000
59.5000000000000,-137.500000000000
60.5000000000000,-137.500000000000
61.5000000000000,-137.500000000000
62.5000000000000,-137.500000000000
63.5000000000000,-137.500000000000
64.5000000000000,-137.500000000000
65.5000000000000,-137.500000000000
66.5000000000000,-137.500000000000
67.5000000000000,-137.500000000000
68.5000000000000,-137.500000000000
58.5000000000000,-136.500000000000
59.5000000000000,-136.500000000000
60.5000000000000,-136.500000000000
61.5000000000000,-136.500000000000
62.5000000000000,-136.500000000000
63.5000000000000,-136.500000000000
64.5000000000000,-136.500000000000
65.5000000000000,-136.500000000000
66.5000000000000,-136.500000000000
67.5000000000000,-136.500000000000
68.5000000000000,-136.500000000000
57.5000000000000,-135.500000000000
58.5000000000000,-135.500000000000
59.5000000000000,-135.500000000000
60.5000000000000,-135.500000000000
61.5000000000000,-135.500000000000
62.5000000000000,-135.500000000000
63.5000000000000,-135.500000000000
64.5000000000000,-135.500000000000
65.5000000000000,-135.500000000000
66.5000000000000,-135.500000000000
67.5000000000000,-135.500000000000
68.5000000000000,-135.500000000000
57.5000000000000,-134.500000000000
58.5000000000000,-134.500000000000
59.5000000000000,-134.500000000000
60.5000000000000,-134.500000000000
61.5000000000000,-134.500000000000
62.5000000000000,-134.500000000000
63.5000000000000,-134.500000000000
64.5000000000000,-134.500000000000
65.5000000000000,-134.500000000000
66.5000000000000,-134.500000000000
67.5000000000000,-134.500000000000
68.5000000000000,-134.500000000000
57.5000000000000,-133.500000000000
58.5000000000000,-133.500000000000
59.5000000000000,-133.500000000000
60.5000000000000,-133.500000000000
61.5000000000000,-133.500000000000
62.5000000000000,-133.500000000000
63.5000000000000,-133.500000000000
64.5000000000000,-133.500000000000
65.5000000000000,-133.500000000000
66.5000000000000,-133.500000000000
67.5000000000000,-133.500000000000
68.5000000000000,-133.500000000000
53.5000000000000,-132.500000000000
55.5000000000000,-132.500000000000
56.5000000000000,-132.500000000000
57.5000000000000,-132.500000000000
58.5000000000000,-132.500000000000
59.5000000000000,-132.500000000000
60.5000000000000,-132.500000000000
61.5000000000000,-132.500000000000
62.5000000000000,-132.500000000000
63.5000000000000,-132.500000000000
64.5000000000000,-132.500000000000
65.5000000000000,-132.500000000000
66.5000000000000,-132.500000000000
67.5000000000000,-132.500000000000
68.5000000000000,-132.500000000000
55.5000000000000,-131.500000000000
56.5000000000000,-131.500000000000
57.5000000000000,-131.500000000000
58.5000000000000,-131.500000000000
59.5000000000000,-131.500000000000
60.5000000000000,-131.500000000000
61.5000000000000,-131.500000000000
62.5000000000000,-131.500000000000
63.5000000000000,-131.500000000000
64.5000000000000,-131.500000000000
65.5000000000000,-131.500000000000
66.5000000000000,-131.500000000000
67.5000000000000,-131.500000000000
68.5000000000000,-131.500000000000
69.5000000000000,-131.500000000000
55.5000000000000,-130.500000000000
56.5000000000000,-130.500000000000
57.5000000000000,-130.500000000000
58.5000000000000,-130.500000000000
59.5000000000000,-130.500000000000
60.5000000000000,-130.500000000000
61.5000000000000,-130.500000000000
62.5000000000000,-130.500000000000
63.5000000000000,-130.500000000000
64.5000000000000,-130.500000000000
65.5000000000000,-130.500000000000
66.5000000000000,-130.500000000000
67.5000000000000,-130.500000000000
68.5000000000000,-130.500000000000
69.5000000000000,-130.500000000000
53.5000000000000,-129.500000000000
54.5000000000000,-129.500000000000
55.5000000000000,-129.500000000000
56.5000000000000,-129.500000000000
57.5000000000000,-129.500000000000
58.5000000000000,-129.500000000000
59.5000000000000,-129.500000000000
60.5000000000000,-129.500000000000
61.5000000000000,-129.500000000000
62.5000000000000,-129.500000000000
63.5000000000000,-129.500000000000
64.5000000000000,-129.500000000000
65.5000000000000,-129.500000000000
66.5000000000000,-129.500000000000
67.5000000000000,-129.500000000000
68.5000000000000,-129.500000000000
53.5000000000000,-128.500000000000
54.5000000000000,-128.500000000000
55.5000000000000,-128.500000000000
56.5000000000000,-128.500000000000
57.5000000000000,-128.500000000000
58.5000000000000,-128.500000000000
59.5000000000000,-128.500000000000
60.5000000000000,-128.500000000000
61.5000000000000,-128.500000000000
62.5000000000000,-128.500000000000
63.5000000000000,-128.500000000000
64.5000000000000,-128.500000000000
65.5000000000000,-128.500000000000
66.5000000000000,-128.500000000000
67.5000000000000,-128.500000000000
68.5000000000000,-128.500000000000
69.5000000000000,-128.500000000000
50.5000000000000,-127.500000000000
51.5000000000000,-127.500000000000
52.5000000000000,-127.500000000000
53.5000000000000,-127.500000000000
54.5000000000000,-127.500000000000
55.5000000000000,-127.500000000000
56.5000000000000,-127.500000000000
57.5000000000000,-127.500000000000
58.5000000000000,-127.500000000000
59.5000000000000,-127.500000000000
60.5000000000000,-127.500000000000
61.5000000000000,-127.500000000000
62.5000000000000,-127.500000000000
63.5000000000000,-127.500000000000
64.5000000000000,-127.500000000000
65.5000000000000,-127.500000000000
66.5000000000000,-127.500000000000
67.5000000000000,-127.500000000000
68.5000000000000,-127.500000000000
69.5000000000000,-127.500000000000
50.5000000000000,-126.500000000000
51.5000000000000,-126.500000000000
52.5000000000000,-126.500000000000
53.5000000000000,-126.500000000000
54.5000000000000,-126.500000000000
55.5000000000000,-126.500000000000
56.5000000000000,-126.500000000000
57.5000000000000,-126.500000000000
58.5000000000000,-126.500000000000
59.5000000000000,-126.500000000000
60.5000000000000,-126.500000000000
61.5000000000000,-126.500000000000
62.5000000000000,-126.500000000000
63.5000000000000,-126.500000000000
64.5000000000000,-126.500000000000
65.5000000000000,-126.500000000000
66.5000000000000,-126.500000000000
67.5000000000000,-126.500000000000
68.5000000000000,-126.500000000000
69.5000000000000,-126.500000000000
49.5000000000000,-125.500000000000
50.5000000000000,-125.500000000000
51.5000000000000,-125.500000000000
52.5000000000000,-125.500000000000
53.5000000000000,-125.500000000000
54.5000000000000,-125.500000000000
55.5000000000000,-125.500000000000
56.5000000000000,-125.500000000000
57.5000000000000,-125.500000000000
58.5000000000000,-125.500000000000
59.5000000000000,-125.500000000000
60.5000000000000,-125.500000000000
61.5000000000000,-125.500000000000
62.5000000000000,-125.500000000000
63.5000000000000,-125.500000000000
64.5000000000000,-125.500000000000
65.5000000000000,-125.500000000000
66.5000000000000,-125.500000000000
67.5000000000000,-125.500000000000
68.5000000000000,-125.500000000000
48.5000000000000,-124.500000000000
49.5000000000000,-124.500000000000
50.5000000000000,-124.500000000000
51.5000000000000,-124.500000000000
52.5000000000000,-124.500000000000
53.5000000000000,-124.500000000000
54.5000000000000,-124.500000000000
55.5000000000000,-124.500000000000
56.5000000000000,-124.500000000000
57.5000000000000,-124.500000000000
58.5000000000000,-124.500000000000
59.5000000000000,-124.500000000000
60.5000000000000,-124.500000000000
61.5000000000000,-124.500000000000
62.5000000000000,-124.500000000000
63.5000000000000,-124.500000000000
64.5000000000000,-124.500000000000
65.5000000000000,-124.500000000000
66.5000000000000,-124.500000000000
67.5000000000000,-124.500000000000
68.5000000000000,-124.500000000000
39.5000000000000,-123.500000000000
40.5000000000000,-123.500000000000
41.5000000000000,-123.500000000000
42.5000000000000,-123.500000000000
43.5000000000000,-123.500000000000
44.5000000000000,-123.500000000000
45.5000000000000,-123.500000000000
46.5000000000000,-123.500000000000
47.5000000000000,-123.500000000000
49.5000000000000,-123.500000000000
50.5000000000000,-123.500000000000
51.5000000000000,-123.500000000000
52.5000000000000,-123.500000000000
53.5000000000000,-123.500000000000
54.5000000000000,-123.500000000000
55.5000000000000,-123.500000000000
56.5000000000000,-123.500000000000
57.5000000000000,-123.500000000000
58.5000000000000,-123.500000000000
59.5000000000000,-123.500000000000
60.5000000000000,-123.500000000000
61.5000000000000,-123.500000000000
62.5000000000000,-123.500000000000
63.5000000000000,-123.500000000000
64.5000000000000,-123.500000000000
65.5000000000000,-123.500000000000
66.5000000000000,-123.500000000000
67.5000000000000,-123.500000000000
68.5000000000000,-123.500000000000
38.5000000000000,-122.500000000000
39.5000000000000,-122.500000000000
40.5000000000000,-122.500000000000
41.5000000000000,-122.500000000000
42.5000000000000,-122.500000000000
43.5000000000000,-122.500000000000
44.5000000000000,-122.500000000000
45.5000000000000,-122.500000000000
46.5000000000000,-122.500000000000
47.5000000000000,-122.500000000000
48.5000000000000,-122.500000000000
49.5000000000000,-122.500000000000
50.5000000000000,-122.500000000000
51.5000000000000,-122.500000000000
52.5000000000000,-122.500000000000
53.5000000000000,-122.500000000000
54.5000000000000,-122.500000000000
55.5000000000000,-122.500000000000
56.5000000000000,-122.500000000000
57.5000000000000,-122.500000000000
58.5000000000000,-122.500000000000
59.5000000000000,-122.500000000000
60.5000000000000,-122.500000000000
61.5000000000000,-122.500000000000
62.5000000000000,-122.500000000000
63.5000000000000,-122.500000000000
64.5000000000000,-122.500000000000
66.5000000000000,-122.500000000000
67.5000000000000,-122.500000000000
68.5000000000000,-122.500000000000
69.5000000000000,-122.500000000000
36.5000000000000,-121.500000000000
37.5000000000000,-121.500000000000
38.5000000000000,-121.500000000000
39.5000000000000,-121.500000000000
40.5000000000000,-121.500000000000
41.5000000000000,-121.500000000000
42.5000000000000,-121.500000000000
43.5000000000000,-121.500000000000
44.5000000000000,-121.500000000000
45.5000000000000,-121.500000000000
46.5000000000000,-121.500000000000
47.5000000000000,-121.500000000000
48.5000000000000,-121.500000000000
49.5000000000000,-121.500000000000
50.5000000000000,-121.500000000000
51.5000000000000,-121.500000000000
52.5000000000000,-121.500000000000
53.5000000000000,-121.500000000000
54.5000000000000,-121.500000000000
55.5000000000000,-121.500000000000
56.5000000000000,-121.500000000000
57.5000000000000,-121.500000000000
58.5000000000000,-121.500000000000
59.5000000000000,-121.500000000000
60.5000000000000,-121.500000000000
61.5000000000000,-121.500000000000
62.5000000000000,-121.500000000000
63.5000000000000,-121.500000000000
64.5000000000000,-121.500000000000
67.5000000000000,-121.500000000000
68.5000000000000,-121.500000000000
69.5000000000000,-121.500000000000
35.5000000000000,-120.500000000000
36.5000000000000,-120.500000000000
37.5000000000000,-120.500000000000
38.5000000000000,-120.500000000000
39.5000000000000,-120.500000000000
40.5000000000000,-120.500000000000
41.5000000000000,-120.500000000000
42.5000000000000,-120.500000000000
43.5000000000000,-120.500000000000
44.5000000000000,-120.500000000000
45.5000000000000,-120.500000000000
46.5000000000000,-120.500000000000
47.5000000000000,-120.500000000000
48.5000000000000,-120.500000000000
49.5000000000000,-120.500000000000
50.5000000000000,-120.500000000000
51.5000000000000,-120.500000000000
52.5000000000000,-120.500000000000
53.5000000000000,-120.500000000000
54.5000000000000,-120.500000000000
55.5000000000000,-120.500000000000
56.5000000000000,-120.500000000000
57.5000000000000,-120.500000000000
58.5000000000000,-120.500000000000
59.5000000000000,-120.500000000000
60.5000000000000,-120.500000000000
61.5000000000000,-120.500000000000
62.5000000000000,-120.500000000000
63.5000000000000,-120.500000000000
64.5000000000000,-120.500000000000
67.5000000000000,-120.500000000000
68.5000000000000,-120.500000000000
34.5000000000000,-119.500000000000
35.5000000000000,-119.500000000000
36.5000000000000,-119.500000000000
37.5000000000000,-119.500000000000
38.5000000000000,-119.500000000000
39.5000000000000,-119.500000000000
40.5000000000000,-119.500000000000
41.5000000000000,-119.500000000000
42.5000000000000,-119.500000000000
43.5000000000000,-119.500000000000
44.5000000000000,-119.500000000000
45.5000000000000,-119.500000000000
46.5000000000000,-119.500000000000
47.5000000000000,-119.500000000000
48.5000000000000,-119.500000000000
49.5000000000000,-119.500000000000
50.5000000000000,-119.500000000000
51.5000000000000,-119.500000000000
52.5000000000000,-119.500000000000
53.5000000000000,-119.500000000000
54.5000000000000,-119.500000000000
55.5000000000000,-119.500000000000
56.5000000000000,-119.500000000000
57.5000000000000,-119.500000000000
58.5000000000000,-119.500000000000
59.5000000000000,-119.500000000000
60.5000000000000,-119.500000000000
61.5000000000000,-119.500000000000
62.5000000000000,-119.500000000000
63.5000000000000,-119.500000000000
64.5000000000000,-119.500000000000
65.5000000000000,-119.500000000000
67.5000000000000,-119.500000000000
68.5000000000000,-119.500000000000
34.5000000000000,-118.500000000000
35.5000000000000,-118.500000000000
36.5000000000000,-118.500000000000
37.5000000000000,-118.500000000000
38.5000000000000,-118.500000000000
39.5000000000000,-118.500000000000
40.5000000000000,-118.500000000000
41.5000000000000,-118.500000000000
42.5000000000000,-118.500000000000
43.5000000000000,-118.500000000000
44.5000000000000,-118.500000000000
45.5000000000000,-118.500000000000
46.5000000000000,-118.500000000000
47.5000000000000,-118.500000000000
48.5000000000000,-118.500000000000
49.5000000000000,-118.500000000000
50.5000000000000,-118.500000000000
51.5000000000000,-118.500000000000
52.5000000000000,-118.500000000000
53.5000000000000,-118.500000000000
54.5000000000000,-118.500000000000
55.5000000000000,-118.500000000000
56.5000000000000,-118.500000000000
57.5000000000000,-118.500000000000
58.5000000000000,-118.500000000000
59.5000000000000,-118.500000000000
60.5000000000000,-118.500000000000
61.5000000000000,-118.500000000000
62.5000000000000,-118.500000000000
63.5000000000000,-118.500000000000
64.5000000000000,-118.500000000000
65.5000000000000,-118.500000000000
66.5000000000000,-118.500000000000
67.5000000000000,-118.500000000000
68.5000000000000,-118.500000000000
33.5000000000000,-117.500000000000
34.5000000000000,-117.500000000000
35.5000000000000,-117.500000000000
36.5000000000000,-117.500000000000
37.5000000000000,-117.500000000000
38.5000000000000,-117.500000000000
39.5000000000000,-117.500000000000
40.5000000000000,-117.500000000000
41.5000000000000,-117.500000000000
42.5000000000000,-117.500000000000
43.5000000000000,-117.500000000000
44.5000000000000,-117.500000000000
45.5000000000000,-117.500000000000
46.5000000000000,-117.500000000000
47.5000000000000,-117.500000000000
48.5000000000000,-117.500000000000
49.5000000000000,-117.500000000000
50.5000000000000,-117.500000000000
51.5000000000000,-117.500000000000
52.5000000000000,-117.500000000000
53.5000000000000,-117.500000000000
54.5000000000000,-117.500000000000
55.5000000000000,-117.500000000000
56.5000000000000,-117.500000000000
57.5000000000000,-117.500000000000
58.5000000000000,-117.500000000000
59.5000000000000,-117.500000000000
60.5000000000000,-117.500000000000
61.5000000000000,-117.500000000000
62.5000000000000,-117.500000000000
63.5000000000000,-117.500000000000
64.5000000000000,-117.500000000000
65.5000000000000,-117.500000000000
66.5000000000000,-117.500000000000
67.5000000000000,-117.500000000000
68.5000000000000,-117.500000000000
31.5000000000000,-116.500000000000
32.5000000000000,-116.500000000000
33.5000000000000,-116.500000000000
34.5000000000000,-116.500000000000
35.5000000000000,-116.500000000000
36.5000000000000,-116.500000000000
37.5000000000000,-116.500000000000
38.5000000000000,-116.500000000000
39.5000000000000,-116.500000000000
40.5000000000000,-116.500000000000
41.5000000000000,-116.500000000000
42.5000000000000,-116.500000000000
43.5000000000000,-116.500000000000
44.5000000000000,-116.500000000000
45.5000000000000,-116.500000000000
46.5000000000000,-116.500000000000
47.5000000000000,-116.500000000000
48.5000000000000,-116.500000000000
49.5000000000000,-116.500000000000
50.5000000000000,-116.500000000000
51.5000000000000,-116.500000000000
52.5000000000000,-116.500000000000
53.5000000000000,-116.500000000000
54.5000000000000,-116.500000000000
55.5000000000000,-116.500000000000
56.5000000000000,-116.500000000000
57.5000000000000,-116.500000000000
58.5000000000000,-116.500000000000
59.5000000000000,-116.500000000000
60.5000000000000,-116.500000000000
61.5000000000000,-116.500000000000
62.5000000000000,-116.500000000000
63.5000000000000,-116.500000000000
64.5000000000000,-116.500000000000
65.5000000000000,-116.500000000000
66.5000000000000,-116.500000000000
67.5000000000000,-116.500000000000
68.5000000000000,-116.500000000000
69.5000000000000,-116.500000000000
30.5000000000000,-115.500000000000
31.5000000000000,-115.500000000000
32.5000000000000,-115.500000000000
33.5000000000000,-115.500000000000
34.5000000000000,-115.500000000000
35.5000000000000,-115.500000000000
36.5000000000000,-115.500000000000
37.5000000000000,-115.500000000000
38.5000000000000,-115.500000000000
39.5000000000000,-115.500000000000
40.5000000000000,-115.500000000000
41.5000000000000,-115.500000000000
42.5000000000000,-115.500000000000
43.5000000000000,-115.500000000000
44.5000000000000,-115.500000000000
45.5000000000000,-115.500000000000
46.5000000000000,-115.500000000000
47.5000000000000,-115.500000000000
48.5000000000000,-115.500000000000
49.5000000000000,-115.500000000000
50.5000000000000,-115.500000000000
51.5000000000000,-115.500000000000
52.5000000000000,-115.500000000000
53.5000000000000,-115.500000000000
54.5000000000000,-115.500000000000
55.5000000000000,-115.500000000000
56.5000000000000,-115.500000000000
57.5000000000000,-115.500000000000
58.5000000000000,-115.500000000000
59.5000000000000,-115.500000000000
60.5000000000000,-115.500000000000
64.5000000000000,-115.500000000000
65.5000000000000,-115.500000000000
66.5000000000000,-115.500000000000
67.5000000000000,-115.500000000000
68.5000000000000,-115.500000000000
29.5000000000000,-114.500000000000
32.5000000000000,-114.500000000000
33.5000000000000,-114.500000000000
34.5000000000000,-114.500000000000
35.5000000000000,-114.500000000000
36.5000000000000,-114.500000000000
37.5000000000000,-114.500000000000
38.5000000000000,-114.500000000000
39.5000000000000,-114.500000000000
40.5000000000000,-114.500000000000
41.5000000000000,-114.500000000000
42.5000000000000,-114.500000000000
43.5000000000000,-114.500000000000
44.5000000000000,-114.500000000000
45.5000000000000,-114.500000000000
46.5000000000000,-114.500000000000
47.5000000000000,-114.500000000000
48.5000000000000,-114.500000000000
49.5000000000000,-114.500000000000
50.5000000000000,-114.500000000000
51.5000000000000,-114.500000000000
52.5000000000000,-114.500000000000
53.5000000000000,-114.500000000000
54.5000000000000,-114.500000000000
55.5000000000000,-114.500000000000
56.5000000000000,-114.500000000000
57.5000000000000,-114.500000000000
58.5000000000000,-114.500000000000
59.5000000000000,-114.500000000000
60.5000000000000,-114.500000000000
63.5000000000000,-114.500000000000
64.5000000000000,-114.500000000000
65.5000000000000,-114.500000000000
66.5000000000000,-114.500000000000
67.5000000000000,-114.500000000000
69.5000000000000,-114.500000000000
27.5000000000000,-113.500000000000
28.5000000000000,-113.500000000000
31.5000000000000,-113.500000000000
32.5000000000000,-113.500000000000
33.5000000000000,-113.500000000000
34.5000000000000,-113.500000000000
35.5000000000000,-113.500000000000
36.5000000000000,-113.500000000000
37.5000000000000,-113.500000000000
38.5000000000000,-113.500000000000
39.5000000000000,-113.500000000000
40.5000000000000,-113.500000000000
41.5000000000000,-113.500000000000
42.5000000000000,-113.500000000000
43.5000000000000,-113.500000000000
44.5000000000000,-113.500000000000
45.5000000000000,-113.500000000000
46.5000000000000,-113.500000000000
47.5000000000000,-113.500000000000
48.5000000000000,-113.500000000000
49.5000000000000,-113.500000000000
50.5000000000000,-113.500000000000
51.5000000000000,-113.500000000000
52.5000000000000,-113.500000000000
53.5000000000000,-113.500000000000
54.5000000000000,-113.500000000000
55.5000000000000,-113.500000000000
56.5000000000000,-113.500000000000
57.5000000000000,-113.500000000000
58.5000000000000,-113.500000000000
59.5000000000000,-113.500000000000
60.5000000000000,-113.500000000000
62.5000000000000,-113.500000000000
63.5000000000000,-113.500000000000
64.5000000000000,-113.500000000000
65.5000000000000,-113.500000000000
66.5000000000000,-113.500000000000
69.5000000000000,-113.500000000000
26.5000000000000,-112.500000000000
27.5000000000000,-112.500000000000
30.5000000000000,-112.500000000000
31.5000000000000,-112.500000000000
32.5000000000000,-112.500000000000
33.5000000000000,-112.500000000000
34.5000000000000,-112.500000000000
35.5000000000000,-112.500000000000
36.5000000000000,-112.500000000000
37.5000000000000,-112.500000000000
38.5000000000000,-112.500000000000
39.5000000000000,-112.500000000000
40.5000000000000,-112.500000000000
41.5000000000000,-112.500000000000
42.5000000000000,-112.500000000000
43.5000000000000,-112.500000000000
44.5000000000000,-112.500000000000
45.5000000000000,-112.500000000000
46.5000000000000,-112.500000000000
47.5000000000000,-112.500000000000
48.5000000000000,-112.500000000000
49.5000000000000,-112.500000000000
50.5000000000000,-112.500000000000
51.5000000000000,-112.500000000000
52.5000000000000,-112.500000000000
53.5000000000000,-112.500000000000
54.5000000000000,-112.500000000000
55.5000000000000,-112.500000000000
56.5000000000000,-112.500000000000
57.5000000000000,-112.500000000000
58.5000000000000,-112.500000000000
59.5000000000000,-112.500000000000
60.5000000000000,-112.500000000000
61.5000000000000,-112.500000000000
62.5000000000000,-112.500000000000
63.5000000000000,-112.500000000000
64.5000000000000,-112.500000000000
65.5000000000000,-112.500000000000
66.5000000000000,-112.500000000000
67.5000000000000,-112.500000000000
69.5000000000000,-112.500000000000
24.5000000000000,-111.500000000000
25.5000000000000,-111.500000000000
28.5000000000000,-111.500000000000
29.5000000000000,-111.500000000000
30.5000000000000,-111.500000000000
31.5000000000000,-111.500000000000
32.5000000000000,-111.500000000000
33.5000000000000,-111.500000000000
34.5000000000000,-111.500000000000
35.5000000000000,-111.500000000000
36.5000000000000,-111.500000000000
37.5000000000000,-111.500000000000
38.5000000000000,-111.500000000000
39.5000000000000,-111.500000000000
40.5000000000000,-111.500000000000
41.5000000000000,-111.500000000000
42.5000000000000,-111.500000000000
43.5000000000000,-111.500000000000
44.5000000000000,-111.500000000000
45.5000000000000,-111.500000000000
46.5000000000000,-111.500000000000
47.5000000000000,-111.500000000000
48.5000000000000,-111.500000000000
49.5000000000000,-111.500000000000
50.5000000000000,-111.500000000000
51.5000000000000,-111.500000000000
52.5000000000000,-111.500000000000
53.5000000000000,-111.500000000000
54.5000000000000,-111.500000000000
55.5000000000000,-111.500000000000
56.5000000000000,-111.500000000000
57.5000000000000,-111.500000000000
58.5000000000000,-111.500000000000
59.5000000000000,-111.500000000000
60.5000000000000,-111.500000000000
61.5000000000000,-111.500000000000
62.5000000000000,-111.500000000000
63.5000000000000,-111.500000000000
64.5000000000000,-111.500000000000
65.5000000000000,-111.500000000000
66.5000000000000,-111.500000000000
67.5000000000000,-111.500000000000
69.5000000000000,-111.500000000000
28.5000000000000,-110.500000000000
29.5000000000000,-110.500000000000
30.5000000000000,-110.500000000000
31.5000000000000,-110.500000000000
32.5000000000000,-110.500000000000
33.5000000000000,-110.500000000000
34.5000000000000,-110.500000000000
35.5000000000000,-110.500000000000
36.5000000000000,-110.500000000000
37.5000000000000,-110.500000000000
38.5000000000000,-110.500000000000
39.5000000000000,-110.500000000000
40.5000000000000,-110.500000000000
41.5000000000000,-110.500000000000
42.5000000000000,-110.500000000000
43.5000000000000,-110.500000000000
44.5000000000000,-110.500000000000
45.5000000000000,-110.500000000000
46.5000000000000,-110.500000000000
47.5000000000000,-110.500000000000
48.5000000000000,-110.500000000000
49.5000000000000,-110.500000000000
50.5000000000000,-110.500000000000
51.5000000000000,-110.500000000000
52.5000000000000,-110.500000000000
53.5000000000000,-110.500000000000
54.5000000000000,-110.500000000000
55.5000000000000,-110.500000000000
56.5000000000000,-110.500000000000
57.5000000000000,-110.500000000000
58.5000000000000,-110.500000000000
59.5000000000000,-110.500000000000
60.5000000000000,-110.500000000000
61.5000000000000,-110.500000000000
62.5000000000000,-110.500000000000
63.5000000000000,-110.500000000000
64.5000000000000,-110.500000000000
65.5000000000000,-110.500000000000
66.5000000000000,-110.500000000000
67.5000000000000,-110.500000000000
69.5000000000000,-110.500000000000
27.5000000000000,-109.500000000000
28.5000000000000,-109.500000000000
29.5000000000000,-109.500000000000
30.5000000000000,-109.500000000000
31.5000000000000,-109.500000000000
32.5000000000000,-109.500000000000
33.5000000000000,-109.500000000000
34.5000000000000,-109.500000000000
35.5000000000000,-109.500000000000
36.5000000000000,-109.500000000000
37.5000000000000,-109.500000000000
38.5000000000000,-109.500000000000
39.5000000000000,-109.500000000000
40.5000000000000,-109.500000000000
41.5000000000000,-109.500000000000
42.5000000000000,-109.500000000000
43.5000000000000,-109.500000000000
44.5000000000000,-109.500000000000
45.5000000000000,-109.500000000000
46.5000000000000,-109.500000000000
47.5000000000000,-109.500000000000
48.5000000000000,-109.500000000000
49.5000000000000,-109.500000000000
50.5000000000000,-109.500000000000
51.5000000000000,-109.500000000000
52.5000000000000,-109.500000000000
53.5000000000000,-109.500000000000
54.5000000000000,-109.500000000000
55.5000000000000,-109.500000000000
56.5000000000000,-109.500000000000
57.5000000000000,-109.500000000000
58.5000000000000,-109.500000000000
60.5000000000000,-109.500000000000
61.5000000000000,-109.500000000000
62.5000000000000,-109.500000000000
63.5000000000000,-109.500000000000
64.5000000000000,-109.500000000000
65.5000000000000,-109.500000000000
66.5000000000000,-109.500000000000
67.5000000000000,-109.500000000000
69.5000000000000,-109.500000000000
25.5000000000000,-108.500000000000
26.5000000000000,-108.500000000000
27.5000000000000,-108.500000000000
28.5000000000000,-108.500000000000
29.5000000000000,-108.500000000000
30.5000000000000,-108.500000000000
31.5000000000000,-108.500000000000
32.5000000000000,-108.500000000000
33.5000000000000,-108.500000000000
34.5000000000000,-108.500000000000
35.5000000000000,-108.500000000000
36.5000000000000,-108.500000000000
37.5000000000000,-108.500000000000
38.5000000000000,-108.500000000000
39.5000000000000,-108.500000000000
40.5000000000000,-108.500000000000
41.5000000000000,-108.500000000000
42.5000000000000,-108.500000000000
43.5000000000000,-108.500000000000
44.5000000000000,-108.500000000000
45.5000000000000,-108.500000000000
46.5000000000000,-108.500000000000
47.5000000000000,-108.500000000000
48.5000000000000,-108.500000000000
49.5000000000000,-108.500000000000
50.5000000000000,-108.500000000000
51.5000000000000,-108.500000000000
52.5000000000000,-108.500000000000
53.5000000000000,-108.500000000000
54.5000000000000,-108.500000000000
55.5000000000000,-108.500000000000
56.5000000000000,-108.500000000000
57.5000000000000,-108.500000000000
58.5000000000000,-108.500000000000
59.5000000000000,-108.500000000000
60.5000000000000,-108.500000000000
61.5000000000000,-108.500000000000
62.5000000000000,-108.500000000000
63.5000000000000,-108.500000000000
64.5000000000000,-108.500000000000
65.5000000000000,-108.500000000000
66.5000000000000,-108.500000000000
69.5000000000000,-108.500000000000
24.5000000000000,-107.500000000000
25.5000000000000,-107.500000000000
26.5000000000000,-107.500000000000
27.5000000000000,-107.500000000000
28.5000000000000,-107.500000000000
29.5000000000000,-107.500000000000
30.5000000000000,-107.500000000000
31.5000000000000,-107.500000000000
32.5000000000000,-107.500000000000
33.5000000000000,-107.500000000000
34.5000000000000,-107.500000000000
35.5000000000000,-107.500000000000
36.5000000000000,-107.500000000000
37.5000000000000,-107.500000000000
38.5000000000000,-107.500000000000
39.5000000000000,-107.500000000000
40.5000000000000,-107.500000000000
41.5000000000000,-107.500000000000
42.5000000000000,-107.500000000000
43.5000000000000,-107.500000000000
44.5000000000000,-107.500000000000
45.5000000000000,-107.500000000000
46.5000000000000,-107.500000000000
47.5000000000000,-107.500000000000
48.5000000000000,-107.500000000000
49.5000000000000,-107.500000000000
50.5000000000000,-107.500000000000
51.5000000000000,-107.500000000000
52.5000000000000,-107.500000000000
53.5000000000000,-107.500000000000
54.5000000000000,-107.500000000000
55.5000000000000,-107.500000000000
56.5000000000000,-107.500000000000
57.5000000000000,-107.500000000000
58.5000000000000,-107.500000000000
59.5000000000000,-107.500000000000
60.5000000000000,-107.500000000000
61.5000000000000,-107.500000000000
62.5000000000000,-107.500000000000
63.5000000000000,-107.500000000000
64.5000000000000,-107.500000000000
65.5000000000000,-107.500000000000
66.5000000000000,-107.500000000000
67.5000000000000,-107.500000000000
69.5000000000000,-107.500000000000
23.5000000000000,-106.500000000000
24.5000000000000,-106.500000000000
25.5000000000000,-106.500000000000
26.5000000000000,-106.500000000000
27.5000000000000,-106.500000000000
28.5000000000000,-106.500000000000
29.5000000000000,-106.500000000000
30.5000000000000,-106.500000000000
31.5000000000000,-106.500000000000
32.5000000000000,-106.500000000000
33.5000000000000,-106.500000000000
34.5000000000000,-106.500000000000
35.5000000000000,-106.500000000000
36.5000000000000,-106.500000000000
37.5000000000000,-106.500000000000
38.5000000000000,-106.500000000000
39.5000000000000,-106.500000000000
40.5000000000000,-106.500000000000
41.5000000000000,-106.500000000000
42.5000000000000,-106.500000000000
43.5000000000000,-106.500000000000
44.5000000000000,-106.500000000000
45.5000000000000,-106.500000000000
46.5000000000000,-106.500000000000
47.5000000000000,-106.500000000000
48.5000000000000,-106.500000000000
49.5000000000000,-106.500000000000
50.5000000000000,-106.500000000000
51.5000000000000,-106.500000000000
52.5000000000000,-106.500000000000
53.5000000000000,-106.500000000000
54.5000000000000,-106.500000000000
55.5000000000000,-106.500000000000
56.5000000000000,-106.500000000000
57.5000000000000,-106.500000000000
58.5000000000000,-106.500000000000
59.5000000000000,-106.500000000000
60.5000000000000,-106.500000000000
61.5000000000000,-106.500000000000
62.5000000000000,-106.500000000000
63.5000000000000,-106.500000000000
64.5000000000000,-106.500000000000
65.5000000000000,-106.500000000000
66.5000000000000,-106.500000000000
67.5000000000000,-106.500000000000
68.5000000000000,-106.500000000000
23.5000000000000,-105.500000000000
24.5000000000000,-105.500000000000
25.5000000000000,-105.500000000000
26.5000000000000,-105.500000000000
27.5000000000000,-105.500000000000
28.5000000000000,-105.500000000000
29.5000000000000,-105.500000000000
30.5000000000000,-105.500000000000
31.5000000000000,-105.500000000000
32.5000000000000,-105.500000000000
33.5000000000000,-105.500000000000
34.5000000000000,-105.500000000000
35.5000000000000,-105.500000000000
36.5000000000000,-105.500000000000
37.5000000000000,-105.500000000000
38.5000000000000,-105.500000000000
39.5000000000000,-105.500000000000
40.5000000000000,-105.500000000000
41.5000000000000,-105.500000000000
42.5000000000000,-105.500000000000
43.5000000000000,-105.500000000000
44.5000000000000,-105.500000000000
45.5000000000000,-105.500000000000
46.5000000000000,-105.500000000000
47.5000000000000,-105.500000000000
48.5000000000000,-105.500000000000
49.5000000000000,-105.500000000000
50.5000000000000,-105.500000000000
51.5000000000000,-105.500000000000
52.5000000000000,-105.500000000000
53.5000000000000,-105.500000000000
54.5000000000000,-105.500000000000
55.5000000000000,-105.500000000000
56.5000000000000,-105.500000000000
57.5000000000000,-105.500000000000
58.5000000000000,-105.500000000000
59.5000000000000,-105.500000000000
60.5000000000000,-105.500000000000
61.5000000000000,-105.500000000000
62.5000000000000,-105.500000000000
63.5000000000000,-105.500000000000
64.5000000000000,-105.500000000000
65.5000000000000,-105.500000000000
66.5000000000000,-105.500000000000
67.5000000000000,-105.500000000000
68.5000000000000,-105.500000000000
19.5000000000000,-104.500000000000
20.5000000000000,-104.500000000000
21.5000000000000,-104.500000000000
22.5000000000000,-104.500000000000
23.5000000000000,-104.500000000000
24.5000000000000,-104.500000000000
25.5000000000000,-104.500000000000
26.5000000000000,-104.500000000000
27.5000000000000,-104.500000000000
28.5000000000000,-104.500000000000
29.5000000000000,-104.500000000000
30.5000000000000,-104.500000000000
31.5000000000000,-104.500000000000
32.5000000000000,-104.500000000000
33.5000000000000,-104.500000000000
34.5000000000000,-104.500000000000
35.5000000000000,-104.500000000000
36.5000000000000,-104.500000000000
37.5000000000000,-104.500000000000
38.5000000000000,-104.500000000000
39.5000000000000,-104.500000000000
40.5000000000000,-104.500000000000
41.5000000000000,-104.500000000000
42.5000000000000,-104.500000000000
43.5000000000000,-104.500000000000
44.5000000000000,-104.500000000000
45.5000000000000,-104.500000000000
46.5000000000000,-104.500000000000
47.5000000000000,-104.500000000000
48.5000000000000,-104.500000000000
49.5000000000000,-104.500000000000
50.5000000000000,-104.500000000000
51.5000000000000,-104.500000000000
52.5000000000000,-104.500000000000
53.5000000000000,-104.500000000000
54.5000000000000,-104.500000000000
55.5000000000000,-104.500000000000
56.5000000000000,-104.500000000000
57.5000000000000,-104.500000000000
58.5000000000000,-104.500000000000
59.5000000000000,-104.500000000000
60.5000000000000,-104.500000000000
61.5000000000000,-104.500000000000
62.5000000000000,-104.500000000000
63.5000000000000,-104.500000000000
64.5000000000000,-104.500000000000
65.5000000000000,-104.500000000000
66.5000000000000,-104.500000000000
67.5000000000000,-104.500000000000
69.5000000000000,-104.500000000000
18.5000000000000,-103.500000000000
19.5000000000000,-103.500000000000
20.5000000000000,-103.500000000000
21.5000000000000,-103.500000000000
22.5000000000000,-103.500000000000
23.5000000000000,-103.500000000000
24.5000000000000,-103.500000000000
25.5000000000000,-103.500000000000
26.5000000000000,-103.500000000000
27.5000000000000,-103.500000000000
28.5000000000000,-103.500000000000
29.5000000000000,-103.500000000000
30.5000000000000,-103.500000000000
31.5000000000000,-103.500000000000
32.5000000000000,-103.500000000000
33.5000000000000,-103.500000000000
34.5000000000000,-103.500000000000
35.5000000000000,-103.500000000000
36.5000000000000,-103.500000000000
37.5000000000000,-103.500000000000
38.5000000000000,-103.500000000000
39.5000000000000,-103.500000000000
40.5000000000000,-103.500000000000
41.5000000000000,-103.500000000000
42.5000000000000,-103.500000000000
43.5000000000000,-103.500000000000
44.5000000000000,-103.500000000000
45.5000000000000,-103.500000000000
46.5000000000000,-103.500000000000
47.5000000000000,-103.500000000000
48.5000000000000,-103.500000000000
49.5000000000000,-103.500000000000
50.5000000000000,-103.500000000000
51.5000000000000,-103.500000000000
52.5000000000000,-103.500000000000
53.5000000000000,-103.500000000000
54.5000000000000,-103.500000000000
55.5000000000000,-103.500000000000
56.5000000000000,-103.500000000000
57.5000000000000,-103.500000000000
58.5000000000000,-103.500000000000
59.5000000000000,-103.500000000000
60.5000000000000,-103.500000000000
61.5000000000000,-103.500000000000
62.5000000000000,-103.500000000000
63.5000000000000,-103.500000000000
64.5000000000000,-103.500000000000
65.5000000000000,-103.500000000000
66.5000000000000,-103.500000000000
67.5000000000000,-103.500000000000
69.5000000000000,-103.500000000000
18.5000000000000,-102.500000000000
19.5000000000000,-102.500000000000
20.5000000000000,-102.500000000000
21.5000000000000,-102.500000000000
22.5000000000000,-102.500000000000
23.5000000000000,-102.500000000000
24.5000000000000,-102.500000000000
25.5000000000000,-102.500000000000
26.5000000000000,-102.500000000000
27.5000000000000,-102.500000000000
28.5000000000000,-102.500000000000
29.5000000000000,-102.500000000000
30.5000000000000,-102.500000000000
31.5000000000000,-102.500000000000
32.5000000000000,-102.500000000000
33.5000000000000,-102.500000000000
34.5000000000000,-102.500000000000
35.5000000000000,-102.500000000000
36.5000000000000,-102.500000000000
37.5000000000000,-102.500000000000
38.5000000000000,-102.500000000000
39.5000000000000,-102.500000000000
40.5000000000000,-102.500000000000
41.5000000000000,-102.500000000000
42.5000000000000,-102.500000000000
43.5000000000000,-102.500000000000
44.5000000000000,-102.500000000000
45.5000000000000,-102.500000000000
46.5000000000000,-102.500000000000
47.5000000000000,-102.500000000000
48.5000000000000,-102.500000000000
49.5000000000000,-102.500000000000
50.5000000000000,-102.500000000000
51.5000000000000,-102.500000000000
52.5000000000000,-102.500000000000
53.5000000000000,-102.500000000000
55.5000000000000,-102.500000000000
56.5000000000000,-102.500000000000
58.5000000000000,-102.500000000000
59.5000000000000,-102.500000000000
60.5000000000000,-102.500000000000
61.5000000000000,-102.500000000000
63.5000000000000,-102.500000000000
64.5000000000000,-102.500000000000
65.5000000000000,-102.500000000000
66.5000000000000,-102.500000000000
67.5000000000000,-102.500000000000
69.5000000000000,-102.500000000000
18.5000000000000,-101.500000000000
19.5000000000000,-101.500000000000
20.5000000000000,-101.500000000000
21.5000000000000,-101.500000000000
22.5000000000000,-101.500000000000
23.5000000000000,-101.500000000000
24.5000000000000,-101.500000000000
25.5000000000000,-101.500000000000
26.5000000000000,-101.500000000000
27.5000000000000,-101.500000000000
28.5000000000000,-101.500000000000
29.5000000000000,-101.500000000000
30.5000000000000,-101.500000000000
31.5000000000000,-101.500000000000
32.5000000000000,-101.500000000000
33.5000000000000,-101.500000000000
34.5000000000000,-101.500000000000
35.5000000000000,-101.500000000000
36.5000000000000,-101.500000000000
37.5000000000000,-101.500000000000
38.5000000000000,-101.500000000000
39.5000000000000,-101.500000000000
40.5000000000000,-101.500000000000
41.5000000000000,-101.500000000000
42.5000000000000,-101.500000000000
43.5000000000000,-101.500000000000
44.5000000000000,-101.500000000000
45.5000000000000,-101.500000000000
46.5000000000000,-101.500000000000
47.5000000000000,-101.500000000000
48.5000000000000,-101.500000000000
49.5000000000000,-101.500000000000
50.5000000000000,-101.500000000000
51.5000000000000,-101.500000000000
52.5000000000000,-101.500000000000
53.5000000000000,-101.500000000000
54.5000000000000,-101.500000000000
55.5000000000000,-101.500000000000
56.5000000000000,-101.500000000000
57.5000000000000,-101.500000000000
58.5000000000000,-101.500000000000
59.5000000000000,-101.500000000000
60.5000000000000,-101.500000000000
61.5000000000000,-101.500000000000
62.5000000000000,-101.500000000000
63.5000000000000,-101.500000000000
64.5000000000000,-101.500000000000
65.5000000000000,-101.500000000000
66.5000000000000,-101.500000000000
67.5000000000000,-101.500000000000
17.5000000000000,-100.500000000000
18.5000000000000,-100.500000000000
19.5000000000000,-100.500000000000
20.5000000000000,-100.500000000000
21.5000000000000,-100.500000000000
22.5000000000000,-100.500000000000
23.5000000000000,-100.500000000000
24.5000000000000,-100.500000000000
25.5000000000000,-100.500000000000
26.5000000000000,-100.500000000000
27.5000000000000,-100.500000000000
28.5000000000000,-100.500000000000
29.5000000000000,-100.500000000000
30.5000000000000,-100.500000000000
31.5000000000000,-100.500000000000
32.5000000000000,-100.500000000000
33.5000000000000,-100.500000000000
34.5000000000000,-100.500000000000
35.5000000000000,-100.500000000000
36.5000000000000,-100.500000000000
37.5000000000000,-100.500000000000
38.5000000000000,-100.500000000000
39.5000000000000,-100.500000000000
40.5000000000000,-100.500000000000
41.5000000000000,-100.500000000000
42.5000000000000,-100.500000000000
43.5000000000000,-100.500000000000
44.5000000000000,-100.500000000000
45.5000000000000,-100.500000000000
46.5000000000000,-100.500000000000
47.5000000000000,-100.500000000000
48.5000000000000,-100.500000000000
49.5000000000000,-100.500000000000
50.5000000000000,-100.500000000000
51.5000000000000,-100.500000000000
52.5000000000000,-100.500000000000
54.5000000000000,-100.500000000000
55.5000000000000,-100.500000000000
56.5000000000000,-100.500000000000
57.5000000000000,-100.500000000000
58.5000000000000,-100.500000000000
59.5000000000000,-100.500000000000
60.5000000000000,-100.500000000000
61.5000000000000,-100.500000000000
62.5000000000000,-100.500000000000
63.5000000000000,-100.500000000000
64.5000000000000,-100.500000000000
65.5000000000000,-100.500000000000
66.5000000000000,-100.500000000000
67.5000000000000,-100.500000000000
17.5000000000000,-99.5000000000000
18.5000000000000,-99.5000000000000
19.5000000000000,-99.5000000000000
20.5000000000000,-99.5000000000000
21.5000000000000,-99.5000000000000
22.5000000000000,-99.5000000000000
23.5000000000000,-99.5000000000000
24.5000000000000,-99.5000000000000
25.5000000000000,-99.5000000000000
26.5000000000000,-99.5000000000000
27.5000000000000,-99.5000000000000
28.5000000000000,-99.5000000000000
29.5000000000000,-99.5000000000000
30.5000000000000,-99.5000000000000
31.5000000000000,-99.5000000000000
32.5000000000000,-99.5000000000000
33.5000000000000,-99.5000000000000
34.5000000000000,-99.5000000000000
35.5000000000000,-99.5000000000000
36.5000000000000,-99.5000000000000
37.5000000000000,-99.5000000000000
38.5000000000000,-99.5000000000000
39.5000000000000,-99.5000000000000
40.5000000000000,-99.5000000000000
41.5000000000000,-99.5000000000000
42.5000000000000,-99.5000000000000
43.5000000000000,-99.5000000000000
44.5000000000000,-99.5000000000000
45.5000000000000,-99.5000000000000
46.5000000000000,-99.5000000000000
47.5000000000000,-99.5000000000000
48.5000000000000,-99.5000000000000
49.5000000000000,-99.5000000000000
50.5000000000000,-99.5000000000000
51.5000000000000,-99.5000000000000
53.5000000000000,-99.5000000000000
54.5000000000000,-99.5000000000000
55.5000000000000,-99.5000000000000
56.5000000000000,-99.5000000000000
57.5000000000000,-99.5000000000000
58.5000000000000,-99.5000000000000
59.5000000000000,-99.5000000000000
60.5000000000000,-99.5000000000000
61.5000000000000,-99.5000000000000
62.5000000000000,-99.5000000000000
63.5000000000000,-99.5000000000000
64.5000000000000,-99.5000000000000
65.5000000000000,-99.5000000000000
66.5000000000000,-99.5000000000000
67.5000000000000,-99.5000000000000
16.5000000000000,-98.5000000000000
17.5000000000000,-98.5000000000000
18.5000000000000,-98.5000000000000
19.5000000000000,-98.5000000000000
20.5000000000000,-98.5000000000000
21.5000000000000,-98.5000000000000
22.5000000000000,-98.5000000000000
23.5000000000000,-98.5000000000000
24.5000000000000,-98.5000000000000
25.5000000000000,-98.5000000000000
26.5000000000000,-98.5000000000000
27.5000000000000,-98.5000000000000
28.5000000000000,-98.5000000000000
29.5000000000000,-98.5000000000000
30.5000000000000,-98.5000000000000
31.5000000000000,-98.5000000000000
32.5000000000000,-98.5000000000000
33.5000000000000,-98.5000000000000
34.5000000000000,-98.5000000000000
35.5000000000000,-98.5000000000000
36.5000000000000,-98.5000000000000
37.5000000000000,-98.5000000000000
38.5000000000000,-98.5000000000000
39.5000000000000,-98.5000000000000
40.5000000000000,-98.5000000000000
41.5000000000000,-98.5000000000000
42.5000000000000,-98.5000000000000
43.5000000000000,-98.5000000000000
44.5000000000000,-98.5000000000000
45.5000000000000,-98.5000000000000
46.5000000000000,-98.5000000000000
47.5000000000000,-98.5000000000000
48.5000000000000,-98.5000000000000
49.5000000000000,-98.5000000000000
50.5000000000000,-98.5000000000000
51.5000000000000,-98.5000000000000
54.5000000000000,-98.5000000000000
55.5000000000000,-98.5000000000000
56.5000000000000,-98.5000000000000
57.5000000000000,-98.5000000000000
58.5000000000000,-98.5000000000000
59.5000000000000,-98.5000000000000
60.5000000000000,-98.5000000000000
61.5000000000000,-98.5000000000000
62.5000000000000,-98.5000000000000
63.5000000000000,-98.5000000000000
64.5000000000000,-98.5000000000000
65.5000000000000,-98.5000000000000
66.5000000000000,-98.5000000000000
67.5000000000000,-98.5000000000000
16.5000000000000,-97.5000000000000
17.5000000000000,-97.5000000000000
18.5000000000000,-97.5000000000000
19.5000000000000,-97.5000000000000
20.5000000000000,-97.5000000000000
25.5000000000000,-97.5000000000000
26.5000000000000,-97.5000000000000
27.5000000000000,-97.5000000000000
28.5000000000000,-97.5000000000000
29.5000000000000,-97.5000000000000
30.5000000000000,-97.5000000000000
31.5000000000000,-97.5000000000000
32.5000000000000,-97.5000000000000
33.5000000000000,-97.5000000000000
34.5000000000000,-97.5000000000000
35.5000000000000,-97.5000000000000
36.5000000000000,-97.5000000000000
37.5000000000000,-97.5000000000000
38.5000000000000,-97.5000000000000
39.5000000000000,-97.5000000000000
40.5000000000000,-97.5000000000000
41.5000000000000,-97.5000000000000
42.5000000000000,-97.5000000000000
43.5000000000000,-97.5000000000000
44.5000000000000,-97.5000000000000
45.5000000000000,-97.5000000000000
46.5000000000000,-97.5000000000000
47.5000000000000,-97.5000000000000
48.5000000000000,-97.5000000000000
49.5000000000000,-97.5000000000000
50.5000000000000,-97.5000000000000
51.5000000000000,-97.5000000000000
53.5000000000000,-97.5000000000000
54.5000000000000,-97.5000000000000
55.5000000000000,-97.5000000000000
56.5000000000000,-97.5000000000000
57.5000000000000,-97.5000000000000
58.5000000000000,-97.5000000000000
59.5000000000000,-97.5000000000000
60.5000000000000,-97.5000000000000
61.5000000000000,-97.5000000000000
62.5000000000000,-97.5000000000000
63.5000000000000,-97.5000000000000
65.5000000000000,-97.5000000000000
66.5000000000000,-97.5000000000000
67.5000000000000,-97.5000000000000
68.5000000000000,-97.5000000000000
69.5000000000000,-97.5000000000000
16.5000000000000,-96.5000000000000
17.5000000000000,-96.5000000000000
18.5000000000000,-96.5000000000000
19.5000000000000,-96.5000000000000
28.5000000000000,-96.5000000000000
29.5000000000000,-96.5000000000000
30.5000000000000,-96.5000000000000
31.5000000000000,-96.5000000000000
32.5000000000000,-96.5000000000000
33.5000000000000,-96.5000000000000
34.5000000000000,-96.5000000000000
35.5000000000000,-96.5000000000000
36.5000000000000,-96.5000000000000
37.5000000000000,-96.5000000000000
38.5000000000000,-96.5000000000000
39.5000000000000,-96.5000000000000
40.5000000000000,-96.5000000000000
41.5000000000000,-96.5000000000000
42.5000000000000,-96.5000000000000
43.5000000000000,-96.5000000000000
44.5000000000000,-96.5000000000000
45.5000000000000,-96.5000000000000
46.5000000000000,-96.5000000000000
47.5000000000000,-96.5000000000000
48.5000000000000,-96.5000000000000
49.5000000000000,-96.5000000000000
50.5000000000000,-96.5000000000000
51.5000000000000,-96.5000000000000
52.5000000000000,-96.5000000000000
53.5000000000000,-96.5000000000000
54.5000000000000,-96.5000000000000
55.5000000000000,-96.5000000000000
56.5000000000000,-96.5000000000000
57.5000000000000,-96.5000000000000
58.5000000000000,-96.5000000000000
59.5000000000000,-96.5000000000000
60.5000000000000,-96.5000000000000
61.5000000000000,-96.5000000000000
62.5000000000000,-96.5000000000000
63.5000000000000,-96.5000000000000
64.5000000000000,-96.5000000000000
65.5000000000000,-96.5000000000000
66.5000000000000,-96.5000000000000
67.5000000000000,-96.5000000000000
68.5000000000000,-96.5000000000000
16.5000000000000,-95.5000000000000
17.5000000000000,-95.5000000000000
18.5000000000000,-95.5000000000000
29.5000000000000,-95.5000000000000
30.5000000000000,-95.5000000000000
31.5000000000000,-95.5000000000000
32.5000000000000,-95.5000000000000
33.5000000000000,-95.5000000000000
34.5000000000000,-95.5000000000000
35.5000000000000,-95.5000000000000
36.5000000000000,-95.5000000000000
37.5000000000000,-95.5000000000000
38.5000000000000,-95.5000000000000
39.5000000000000,-95.5000000000000
40.5000000000000,-95.5000000000000
41.5000000000000,-95.5000000000000
42.5000000000000,-95.5000000000000
43.5000000000000,-95.5000000000000
44.5000000000000,-95.5000000000000
45.5000000000000,-95.5000000000000
46.5000000000000,-95.5000000000000
47.5000000000000,-95.5000000000000
48.5000000000000,-95.5000000000000
49.5000000000000,-95.5000000000000
50.5000000000000,-95.5000000000000
51.5000000000000,-95.5000000000000
52.5000000000000,-95.5000000000000
53.5000000000000,-95.5000000000000
54.5000000000000,-95.5000000000000
55.5000000000000,-95.5000000000000
56.5000000000000,-95.5000000000000
57.5000000000000,-95.5000000000000
58.5000000000000,-95.5000000000000
59.5000000000000,-95.5000000000000
60.5000000000000,-95.5000000000000
61.5000000000000,-95.5000000000000
62.5000000000000,-95.5000000000000
63.5000000000000,-95.5000000000000
64.5000000000000,-95.5000000000000
65.5000000000000,-95.5000000000000
66.5000000000000,-95.5000000000000
16.5000000000000,-94.5000000000000
17.5000000000000,-94.5000000000000
30.5000000000000,-94.5000000000000
31.5000000000000,-94.5000000000000
32.5000000000000,-94.5000000000000
33.5000000000000,-94.5000000000000
34.5000000000000,-94.5000000000000
35.5000000000000,-94.5000000000000
36.5000000000000,-94.5000000000000
37.5000000000000,-94.5000000000000
38.5000000000000,-94.5000000000000
39.5000000000000,-94.5000000000000
40.5000000000000,-94.5000000000000
41.5000000000000,-94.5000000000000
42.5000000000000,-94.5000000000000
43.5000000000000,-94.5000000000000
44.5000000000000,-94.5000000000000
45.5000000000000,-94.5000000000000
46.5000000000000,-94.5000000000000
47.5000000000000,-94.5000000000000
48.5000000000000,-94.5000000000000
50.5000000000000,-94.5000000000000
51.5000000000000,-94.5000000000000
52.5000000000000,-94.5000000000000
53.5000000000000,-94.5000000000000
54.5000000000000,-94.5000000000000
55.5000000000000,-94.5000000000000
56.5000000000000,-94.5000000000000
57.5000000000000,-94.5000000000000
58.5000000000000,-94.5000000000000
61.5000000000000,-94.5000000000000
62.5000000000000,-94.5000000000000
63.5000000000000,-94.5000000000000
64.5000000000000,-94.5000000000000
65.5000000000000,-94.5000000000000
66.5000000000000,-94.5000000000000
67.5000000000000,-94.5000000000000
16.5000000000000,-93.5000000000000
17.5000000000000,-93.5000000000000
30.5000000000000,-93.5000000000000
31.5000000000000,-93.5000000000000
32.5000000000000,-93.5000000000000
33.5000000000000,-93.5000000000000
34.5000000000000,-93.5000000000000
35.5000000000000,-93.5000000000000
36.5000000000000,-93.5000000000000
37.5000000000000,-93.5000000000000
38.5000000000000,-93.5000000000000
39.5000000000000,-93.5000000000000
40.5000000000000,-93.5000000000000
41.5000000000000,-93.5000000000000
42.5000000000000,-93.5000000000000
43.5000000000000,-93.5000000000000
44.5000000000000,-93.5000000000000
45.5000000000000,-93.5000000000000
46.5000000000000,-93.5000000000000
47.5000000000000,-93.5000000000000
48.5000000000000,-93.5000000000000
49.5000000000000,-93.5000000000000
50.5000000000000,-93.5000000000000
51.5000000000000,-93.5000000000000
52.5000000000000,-93.5000000000000
53.5000000000000,-93.5000000000000
54.5000000000000,-93.5000000000000
55.5000000000000,-93.5000000000000
56.5000000000000,-93.5000000000000
57.5000000000000,-93.5000000000000
58.5000000000000,-93.5000000000000
62.5000000000000,-93.5000000000000
63.5000000000000,-93.5000000000000
64.5000000000000,-93.5000000000000
65.5000000000000,-93.5000000000000
66.5000000000000,-93.5000000000000
67.5000000000000,-93.5000000000000
68.5000000000000,-93.5000000000000
69.5000000000000,-93.5000000000000
15.5000000000000,-92.5000000000000
16.5000000000000,-92.5000000000000
17.5000000000000,-92.5000000000000
18.5000000000000,-92.5000000000000
30.5000000000000,-92.5000000000000
31.5000000000000,-92.5000000000000
32.5000000000000,-92.5000000000000
33.5000000000000,-92.5000000000000
34.5000000000000,-92.5000000000000
35.5000000000000,-92.5000000000000
36.5000000000000,-92.5000000000000
37.5000000000000,-92.5000000000000
38.5000000000000,-92.5000000000000
39.5000000000000,-92.5000000000000
40.5000000000000,-92.5000000000000
41.5000000000000,-92.5000000000000
42.5000000000000,-92.5000000000000
43.5000000000000,-92.5000000000000
44.5000000000000,-92.5000000000000
45.5000000000000,-92.5000000000000
46.5000000000000,-92.5000000000000
47.5000000000000,-92.5000000000000
48.5000000000000,-92.5000000000000
49.5000000000000,-92.5000000000000
50.5000000000000,-92.5000000000000
51.5000000000000,-92.5000000000000
52.5000000000000,-92.5000000000000
53.5000000000000,-92.5000000000000
54.5000000000000,-92.5000000000000
55.5000000000000,-92.5000000000000
56.5000000000000,-92.5000000000000
63.5000000000000,-92.5000000000000
64.5000000000000,-92.5000000000000
65.5000000000000,-92.5000000000000
66.5000000000000,-92.5000000000000
67.5000000000000,-92.5000000000000
68.5000000000000,-92.5000000000000
69.5000000000000,-92.5000000000000
14.5000000000000,-91.5000000000000
15.5000000000000,-91.5000000000000
16.5000000000000,-91.5000000000000
17.5000000000000,-91.5000000000000
18.5000000000000,-91.5000000000000
30.5000000000000,-91.5000000000000
31.5000000000000,-91.5000000000000
32.5000000000000,-91.5000000000000
33.5000000000000,-91.5000000000000
34.5000000000000,-91.5000000000000
35.5000000000000,-91.5000000000000
36.5000000000000,-91.5000000000000
37.5000000000000,-91.5000000000000
38.5000000000000,-91.5000000000000
39.5000000000000,-91.5000000000000
40.5000000000000,-91.5000000000000
41.5000000000000,-91.5000000000000
42.5000000000000,-91.5000000000000
43.5000000000000,-91.5000000000000
44.5000000000000,-91.5000000000000
45.5000000000000,-91.5000000000000
46.5000000000000,-91.5000000000000
47.5000000000000,-91.5000000000000
48.5000000000000,-91.5000000000000
49.5000000000000,-91.5000000000000
50.5000000000000,-91.5000000000000
51.5000000000000,-91.5000000000000
52.5000000000000,-91.5000000000000
53.5000000000000,-91.5000000000000
54.5000000000000,-91.5000000000000
55.5000000000000,-91.5000000000000
56.5000000000000,-91.5000000000000
63.5000000000000,-91.5000000000000
64.5000000000000,-91.5000000000000
65.5000000000000,-91.5000000000000
66.5000000000000,-91.5000000000000
67.5000000000000,-91.5000000000000
68.5000000000000,-91.5000000000000
69.5000000000000,-91.5000000000000
14.5000000000000,-90.5000000000000
15.5000000000000,-90.5000000000000
16.5000000000000,-90.5000000000000
17.5000000000000,-90.5000000000000
18.5000000000000,-90.5000000000000
19.5000000000000,-90.5000000000000
29.5000000000000,-90.5000000000000
30.5000000000000,-90.5000000000000
31.5000000000000,-90.5000000000000
32.5000000000000,-90.5000000000000
33.5000000000000,-90.5000000000000
34.5000000000000,-90.5000000000000
35.5000000000000,-90.5000000000000
36.5000000000000,-90.5000000000000
37.5000000000000,-90.5000000000000
38.5000000000000,-90.5000000000000
39.5000000000000,-90.5000000000000
40.5000000000000,-90.5000000000000
41.5000000000000,-90.5000000000000
42.5000000000000,-90.5000000000000
43.5000000000000,-90.5000000000000
44.5000000000000,-90.5000000000000
45.5000000000000,-90.5000000000000
46.5000000000000,-90.5000000000000
48.5000000000000,-90.5000000000000
49.5000000000000,-90.5000000000000
50.5000000000000,-90.5000000000000
51.5000000000000,-90.5000000000000
52.5000000000000,-90.5000000000000
53.5000000000000,-90.5000000000000
54.5000000000000,-90.5000000000000
55.5000000000000,-90.5000000000000
56.5000000000000,-90.5000000000000
64.5000000000000,-90.5000000000000
65.5000000000000,-90.5000000000000
66.5000000000000,-90.5000000000000
67.5000000000000,-90.5000000000000
68.5000000000000,-90.5000000000000
14.5000000000000,-89.5000000000000
15.5000000000000,-89.5000000000000
16.5000000000000,-89.5000000000000
17.5000000000000,-89.5000000000000
18.5000000000000,-89.5000000000000
19.5000000000000,-89.5000000000000
20.5000000000000,-89.5000000000000
30.5000000000000,-89.5000000000000
31.5000000000000,-89.5000000000000
32.5000000000000,-89.5000000000000
33.5000000000000,-89.5000000000000
34.5000000000000,-89.5000000000000
35.5000000000000,-89.5000000000000
36.5000000000000,-89.5000000000000
37.5000000000000,-89.5000000000000
38.5000000000000,-89.5000000000000
39.5000000000000,-89.5000000000000
40.5000000000000,-89.5000000000000
41.5000000000000,-89.5000000000000
42.5000000000000,-89.5000000000000
43.5000000000000,-89.5000000000000
44.5000000000000,-89.5000000000000
45.5000000000000,-89.5000000000000
46.5000000000000,-89.5000000000000
48.5000000000000,-89.5000000000000
49.5000000000000,-89.5000000000000
50.5000000000000,-89.5000000000000
51.5000000000000,-89.5000000000000
52.5000000000000,-89.5000000000000
53.5000000000000,-89.5000000000000
54.5000000000000,-89.5000000000000
55.5000000000000,-89.5000000000000
56.5000000000000,-89.5000000000000
64.5000000000000,-89.5000000000000
65.5000000000000,-89.5000000000000
66.5000000000000,-89.5000000000000
67.5000000000000,-89.5000000000000
68.5000000000000,-89.5000000000000
13.5000000000000,-88.5000000000000
14.5000000000000,-88.5000000000000
15.5000000000000,-88.5000000000000
17.5000000000000,-88.5000000000000
18.5000000000000,-88.5000000000000
19.5000000000000,-88.5000000000000
20.5000000000000,-88.5000000000000
21.5000000000000,-88.5000000000000
31.5000000000000,-88.5000000000000
32.5000000000000,-88.5000000000000
33.5000000000000,-88.5000000000000
34.5000000000000,-88.5000000000000
35.5000000000000,-88.5000000000000
36.5000000000000,-88.5000000000000
37.5000000000000,-88.5000000000000
38.5000000000000,-88.5000000000000
39.5000000000000,-88.5000000000000
40.5000000000000,-88.5000000000000
41.5000000000000,-88.5000000000000
42.5000000000000,-88.5000000000000
43.5000000000000,-88.5000000000000
44.5000000000000,-88.5000000000000
45.5000000000000,-88.5000000000000
46.5000000000000,-88.5000000000000
50.5000000000000,-88.5000000000000
51.5000000000000,-88.5000000000000
52.5000000000000,-88.5000000000000
53.5000000000000,-88.5000000000000
54.5000000000000,-88.5000000000000
55.5000000000000,-88.5000000000000
56.5000000000000,-88.5000000000000
64.5000000000000,-88.5000000000000
65.5000000000000,-88.5000000000000
66.5000000000000,-88.5000000000000
67.5000000000000,-88.5000000000000
68.5000000000000,-88.5000000000000
13.5000000000000,-87.5000000000000
14.5000000000000,-87.5000000000000
15.5000000000000,-87.5000000000000
20.5000000000000,-87.5000000000000
21.5000000000000,-87.5000000000000
30.5000000000000,-87.5000000000000
31.5000000000000,-87.5000000000000
32.5000000000000,-87.5000000000000
33.5000000000000,-87.5000000000000
34.5000000000000,-87.5000000000000
35.5000000000000,-87.5000000000000
36.5000000000000,-87.5000000000000
37.5000000000000,-87.5000000000000
38.5000000000000,-87.5000000000000
39.5000000000000,-87.5000000000000
40.5000000000000,-87.5000000000000
41.5000000000000,-87.5000000000000
45.5000000000000,-87.5000000000000
46.5000000000000,-87.5000000000000
49.5000000000000,-87.5000000000000
50.5000000000000,-87.5000000000000
51.5000000000000,-87.5000000000000
52.5000000000000,-87.5000000000000
53.5000000000000,-87.5000000000000
54.5000000000000,-87.5000000000000
55.5000000000000,-87.5000000000000
65.5000000000000,-87.5000000000000
66.5000000000000,-87.5000000000000
12.5000000000000,-86.5000000000000
13.5000000000000,-86.5000000000000
14.5000000000000,-86.5000000000000
15.5000000000000,-86.5000000000000
30.5000000000000,-86.5000000000000
31.5000000000000,-86.5000000000000
32.5000000000000,-86.5000000000000
33.5000000000000,-86.5000000000000
34.5000000000000,-86.5000000000000
35.5000000000000,-86.5000000000000
36.5000000000000,-86.5000000000000
37.5000000000000,-86.5000000000000
38.5000000000000,-86.5000000000000
39.5000000000000,-86.5000000000000
40.5000000000000,-86.5000000000000
41.5000000000000,-86.5000000000000
46.5000000000000,-86.5000000000000
49.5000000000000,-86.5000000000000
50.5000000000000,-86.5000000000000
51.5000000000000,-86.5000000000000
52.5000000000000,-86.5000000000000
53.5000000000000,-86.5000000000000
54.5000000000000,-86.5000000000000
55.5000000000000,-86.5000000000000
66.5000000000000,-86.5000000000000
67.5000000000000,-86.5000000000000
10.5000000000000,-85.5000000000000
12.5000000000000,-85.5000000000000
13.5000000000000,-85.5000000000000
14.5000000000000,-85.5000000000000
15.5000000000000,-85.5000000000000
30.5000000000000,-85.5000000000000
31.5000000000000,-85.5000000000000
32.5000000000000,-85.5000000000000
33.5000000000000,-85.5000000000000
34.5000000000000,-85.5000000000000
35.5000000000000,-85.5000000000000
36.5000000000000,-85.5000000000000
37.5000000000000,-85.5000000000000
38.5000000000000,-85.5000000000000
39.5000000000000,-85.5000000000000
40.5000000000000,-85.5000000000000
41.5000000000000,-85.5000000000000
42.5000000000000,-85.5000000000000
43.5000000000000,-85.5000000000000
44.5000000000000,-85.5000000000000
46.5000000000000,-85.5000000000000
48.5000000000000,-85.5000000000000
49.5000000000000,-85.5000000000000
50.5000000000000,-85.5000000000000
51.5000000000000,-85.5000000000000
52.5000000000000,-85.5000000000000
53.5000000000000,-85.5000000000000
54.5000000000000,-85.5000000000000
63.5000000000000,-85.5000000000000
64.5000000000000,-85.5000000000000
67.5000000000000,-85.5000000000000
68.5000000000000,-85.5000000000000
10.5000000000000,-84.5000000000000
11.5000000000000,-84.5000000000000
12.5000000000000,-84.5000000000000
13.5000000000000,-84.5000000000000
14.5000000000000,-84.5000000000000
15.5000000000000,-84.5000000000000
30.5000000000000,-84.5000000000000
31.5000000000000,-84.5000000000000
32.5000000000000,-84.5000000000000
33.5000000000000,-84.5000000000000
34.5000000000000,-84.5000000000000
35.5000000000000,-84.5000000000000
36.5000000000000,-84.5000000000000
37.5000000000000,-84.5000000000000
38.5000000000000,-84.5000000000000
39.5000000000000,-84.5000000000000
40.5000000000000,-84.5000000000000
41.5000000000000,-84.5000000000000
42.5000000000000,-84.5000000000000
43.5000000000000,-84.5000000000000
44.5000000000000,-84.5000000000000
45.5000000000000,-84.5000000000000
46.5000000000000,-84.5000000000000
47.5000000000000,-84.5000000000000
48.5000000000000,-84.5000000000000
49.5000000000000,-84.5000000000000
50.5000000000000,-84.5000000000000
51.5000000000000,-84.5000000000000
52.5000000000000,-84.5000000000000
53.5000000000000,-84.5000000000000
54.5000000000000,-84.5000000000000
63.5000000000000,-84.5000000000000
64.5000000000000,-84.5000000000000
66.5000000000000,-84.5000000000000
67.5000000000000,-84.5000000000000
68.5000000000000,-84.5000000000000
69.5000000000000,-84.5000000000000
10.5000000000000,-83.5000000000000
14.5000000000000,-83.5000000000000
22.5000000000000,-83.5000000000000
30.5000000000000,-83.5000000000000
31.5000000000000,-83.5000000000000
32.5000000000000,-83.5000000000000
33.5000000000000,-83.5000000000000
34.5000000000000,-83.5000000000000
35.5000000000000,-83.5000000000000
36.5000000000000,-83.5000000000000
37.5000000000000,-83.5000000000000
38.5000000000000,-83.5000000000000
39.5000000000000,-83.5000000000000
40.5000000000000,-83.5000000000000
41.5000000000000,-83.5000000000000
42.5000000000000,-83.5000000000000
43.5000000000000,-83.5000000000000
44.5000000000000,-83.5000000000000
46.5000000000000,-83.5000000000000
47.5000000000000,-83.5000000000000
48.5000000000000,-83.5000000000000
49.5000000000000,-83.5000000000000
50.5000000000000,-83.5000000000000
51.5000000000000,-83.5000000000000
52.5000000000000,-83.5000000000000
53.5000000000000,-83.5000000000000
54.5000000000000,-83.5000000000000
64.5000000000000,-83.5000000000000
66.5000000000000,-83.5000000000000
67.5000000000000,-83.5000000000000
68.5000000000000,-83.5000000000000
69.5000000000000,-83.5000000000000
27.5000000000000,-82.5000000000000
28.5000000000000,-82.5000000000000
29.5000000000000,-82.5000000000000
30.5000000000000,-82.5000000000000
31.5000000000000,-82.5000000000000
32.5000000000000,-82.5000000000000
33.5000000000000,-82.5000000000000
34.5000000000000,-82.5000000000000
35.5000000000000,-82.5000000000000
36.5000000000000,-82.5000000000000
37.5000000000000,-82.5000000000000
38.5000000000000,-82.5000000000000
39.5000000000000,-82.5000000000000
40.5000000000000,-82.5000000000000
42.5000000000000,-82.5000000000000
46.5000000000000,-82.5000000000000
47.5000000000000,-82.5000000000000
48.5000000000000,-82.5000000000000
49.5000000000000,-82.5000000000000
50.5000000000000,-82.5000000000000
51.5000000000000,-82.5000000000000
52.5000000000000,-82.5000000000000
53.5000000000000,-82.5000000000000
54.5000000000000,-82.5000000000000
64.5000000000000,-82.5000000000000
67.5000000000000,-82.5000000000000
68.5000000000000,-82.5000000000000
69.5000000000000,-82.5000000000000
22.5000000000000,-81.5000000000000
26.5000000000000,-81.5000000000000
27.5000000000000,-81.5000000000000
28.5000000000000,-81.5000000000000
29.5000000000000,-81.5000000000000
30.5000000000000,-81.5000000000000
31.5000000000000,-81.5000000000000
32.5000000000000,-81.5000000000000
33.5000000000000,-81.5000000000000
34.5000000000000,-81.5000000000000
35.5000000000000,-81.5000000000000
36.5000000000000,-81.5000000000000
37.5000000000000,-81.5000000000000
38.5000000000000,-81.5000000000000
39.5000000000000,-81.5000000000000
40.5000000000000,-81.5000000000000
41.5000000000000,-81.5000000000000
43.5000000000000,-81.5000000000000
46.5000000000000,-81.5000000000000
47.5000000000000,-81.5000000000000
48.5000000000000,-81.5000000000000
49.5000000000000,-81.5000000000000
50.5000000000000,-81.5000000000000
51.5000000000000,-81.5000000000000
22.5000000000000,-80.5000000000000
25.5000000000000,-80.5000000000000
26.5000000000000,-80.5000000000000
27.5000000000000,-80.5000000000000
33.5000000000000,-80.5000000000000
34.5000000000000,-80.5000000000000
35.5000000000000,-80.5000000000000
36.5000000000000,-80.5000000000000
37.5000000000000,-80.5000000000000
38.5000000000000,-80.5000000000000
39.5000000000000,-80.5000000000000
40.5000000000000,-80.5000000000000
41.5000000000000,-80.5000000000000
43.5000000000000,-80.5000000000000
44.5000000000000,-80.5000000000000
46.5000000000000,-80.5000000000000
47.5000000000000,-80.5000000000000
48.5000000000000,-80.5000000000000
49.5000000000000,-80.5000000000000
50.5000000000000,-80.5000000000000
51.5000000000000,-80.5000000000000
22.5000000000000,-79.5000000000000
33.5000000000000,-79.5000000000000
34.5000000000000,-79.5000000000000
35.5000000000000,-79.5000000000000
36.5000000000000,-79.5000000000000
37.5000000000000,-79.5000000000000
38.5000000000000,-79.5000000000000
39.5000000000000,-79.5000000000000
40.5000000000000,-79.5000000000000
41.5000000000000,-79.5000000000000
42.5000000000000,-79.5000000000000
43.5000000000000,-79.5000000000000
44.5000000000000,-79.5000000000000
45.5000000000000,-79.5000000000000
46.5000000000000,-79.5000000000000
47.5000000000000,-79.5000000000000
48.5000000000000,-79.5000000000000
49.5000000000000,-79.5000000000000
50.5000000000000,-79.5000000000000
21.5000000000000,-78.5000000000000
34.5000000000000,-78.5000000000000
35.5000000000000,-78.5000000000000
36.5000000000000,-78.5000000000000
37.5000000000000,-78.5000000000000
38.5000000000000,-78.5000000000000
39.5000000000000,-78.5000000000000
40.5000000000000,-78.5000000000000
41.5000000000000,-78.5000000000000
42.5000000000000,-78.5000000000000
44.5000000000000,-78.5000000000000
45.5000000000000,-78.5000000000000
46.5000000000000,-78.5000000000000
47.5000000000000,-78.5000000000000
48.5000000000000,-78.5000000000000
49.5000000000000,-78.5000000000000
50.5000000000000,-78.5000000000000
51.5000000000000,-78.5000000000000
52.5000000000000,-78.5000000000000
53.5000000000000,-78.5000000000000
54.5000000000000,-78.5000000000000
21.5000000000000,-77.5000000000000
35.5000000000000,-77.5000000000000
36.5000000000000,-77.5000000000000
37.5000000000000,-77.5000000000000
38.5000000000000,-77.5000000000000
39.5000000000000,-77.5000000000000
40.5000000000000,-77.5000000000000
41.5000000000000,-77.5000000000000
42.5000000000000,-77.5000000000000
44.5000000000000,-77.5000000000000
45.5000000000000,-77.5000000000000
46.5000000000000,-77.5000000000000
47.5000000000000,-77.5000000000000
48.5000000000000,-77.5000000000000
49.5000000000000,-77.5000000000000
50.5000000000000,-77.5000000000000
51.5000000000000,-77.5000000000000
52.5000000000000,-77.5000000000000
53.5000000000000,-77.5000000000000
54.5000000000000,-77.5000000000000
58.5000000000000,-77.5000000000000
59.5000000000000,-77.5000000000000
60.5000000000000,-77.5000000000000
61.5000000000000,-77.5000000000000
20.5000000000000,-76.5000000000000
35.5000000000000,-76.5000000000000
36.5000000000000,-76.5000000000000
37.5000000000000,-76.5000000000000
38.5000000000000,-76.5000000000000
39.5000000000000,-76.5000000000000
40.5000000000000,-76.5000000000000
41.5000000000000,-76.5000000000000
42.5000000000000,-76.5000000000000
43.5000000000000,-76.5000000000000
44.5000000000000,-76.5000000000000
45.5000000000000,-76.5000000000000
46.5000000000000,-76.5000000000000
47.5000000000000,-76.5000000000000
48.5000000000000,-76.5000000000000
49.5000000000000,-76.5000000000000
50.5000000000000,-76.5000000000000
51.5000000000000,-76.5000000000000
52.5000000000000,-76.5000000000000
54.5000000000000,-76.5000000000000
55.5000000000000,-76.5000000000000
57.5000000000000,-76.5000000000000
58.5000000000000,-76.5000000000000
59.5000000000000,-76.5000000000000
60.5000000000000,-76.5000000000000
61.5000000000000,-76.5000000000000
64.5000000000000,-76.5000000000000
67.5000000000000,-76.5000000000000
69.5000000000000,-76.5000000000000
20.5000000000000,-75.5000000000000
38.5000000000000,-75.5000000000000
39.5000000000000,-75.5000000000000
40.5000000000000,-75.5000000000000
41.5000000000000,-75.5000000000000
42.5000000000000,-75.5000000000000
43.5000000000000,-75.5000000000000
44.5000000000000,-75.5000000000000
45.5000000000000,-75.5000000000000
46.5000000000000,-75.5000000000000
47.5000000000000,-75.5000000000000
48.5000000000000,-75.5000000000000
49.5000000000000,-75.5000000000000
50.5000000000000,-75.5000000000000
51.5000000000000,-75.5000000000000
52.5000000000000,-75.5000000000000
54.5000000000000,-75.5000000000000
55.5000000000000,-75.5000000000000
56.5000000000000,-75.5000000000000
57.5000000000000,-75.5000000000000
58.5000000000000,-75.5000000000000
59.5000000000000,-75.5000000000000
60.5000000000000,-75.5000000000000
61.5000000000000,-75.5000000000000
67.5000000000000,-75.5000000000000
69.5000000000000,-75.5000000000000
10.5000000000000,-74.5000000000000
39.5000000000000,-74.5000000000000
40.5000000000000,-74.5000000000000
41.5000000000000,-74.5000000000000
42.5000000000000,-74.5000000000000
43.5000000000000,-74.5000000000000
44.5000000000000,-74.5000000000000
45.5000000000000,-74.5000000000000
46.5000000000000,-74.5000000000000
47.5000000000000,-74.5000000000000
48.5000000000000,-74.5000000000000
49.5000000000000,-74.5000000000000
50.5000000000000,-74.5000000000000
51.5000000000000,-74.5000000000000
52.5000000000000,-74.5000000000000
53.5000000000000,-74.5000000000000
54.5000000000000,-74.5000000000000
55.5000000000000,-74.5000000000000
57.5000000000000,-74.5000000000000
58.5000000000000,-74.5000000000000
59.5000000000000,-74.5000000000000
60.5000000000000,-74.5000000000000
61.5000000000000,-74.5000000000000
69.5000000000000,-74.5000000000000
10.5000000000000,-73.5000000000000
41.5000000000000,-73.5000000000000
42.5000000000000,-73.5000000000000
43.5000000000000,-73.5000000000000
44.5000000000000,-73.5000000000000
45.5000000000000,-73.5000000000000
46.5000000000000,-73.5000000000000
47.5000000000000,-73.5000000000000
48.5000000000000,-73.5000000000000
49.5000000000000,-73.5000000000000
50.5000000000000,-73.5000000000000
51.5000000000000,-73.5000000000000
52.5000000000000,-73.5000000000000
53.5000000000000,-73.5000000000000
54.5000000000000,-73.5000000000000
55.5000000000000,-73.5000000000000
56.5000000000000,-73.5000000000000
57.5000000000000,-73.5000000000000
58.5000000000000,-73.5000000000000
59.5000000000000,-73.5000000000000
60.5000000000000,-73.5000000000000
61.5000000000000,-73.5000000000000
65.5000000000000,-73.5000000000000
69.5000000000000,-73.5000000000000
10.5000000000000,-72.5000000000000
11.5000000000000,-72.5000000000000
18.5000000000000,-72.5000000000000
19.5000000000000,-72.5000000000000
41.5000000000000,-72.5000000000000
42.5000000000000,-72.5000000000000
43.5000000000000,-72.5000000000000
44.5000000000000,-72.5000000000000
45.5000000000000,-72.5000000000000
46.5000000000000,-72.5000000000000
47.5000000000000,-72.5000000000000
48.5000000000000,-72.5000000000000
49.5000000000000,-72.5000000000000
50.5000000000000,-72.5000000000000
51.5000000000000,-72.5000000000000
52.5000000000000,-72.5000000000000
53.5000000000000,-72.5000000000000
54.5000000000000,-72.5000000000000
55.5000000000000,-72.5000000000000
56.5000000000000,-72.5000000000000
57.5000000000000,-72.5000000000000
58.5000000000000,-72.5000000000000
59.5000000000000,-72.5000000000000
60.5000000000000,-72.5000000000000
61.5000000000000,-72.5000000000000
64.5000000000000,-72.5000000000000
65.5000000000000,-72.5000000000000
66.5000000000000,-72.5000000000000
68.5000000000000,-72.5000000000000
69.5000000000000,-72.5000000000000
10.5000000000000,-71.5000000000000
18.5000000000000,-71.5000000000000
19.5000000000000,-71.5000000000000
41.5000000000000,-71.5000000000000
42.5000000000000,-71.5000000000000
43.5000000000000,-71.5000000000000
44.5000000000000,-71.5000000000000
45.5000000000000,-71.5000000000000
46.5000000000000,-71.5000000000000
47.5000000000000,-71.5000000000000
48.5000000000000,-71.5000000000000
49.5000000000000,-71.5000000000000
50.5000000000000,-71.5000000000000
51.5000000000000,-71.5000000000000
52.5000000000000,-71.5000000000000
53.5000000000000,-71.5000000000000
54.5000000000000,-71.5000000000000
55.5000000000000,-71.5000000000000
56.5000000000000,-71.5000000000000
57.5000000000000,-71.5000000000000
58.5000000000000,-71.5000000000000
59.5000000000000,-71.5000000000000
60.5000000000000,-71.5000000000000
63.5000000000000,-71.5000000000000
64.5000000000000,-71.5000000000000
65.5000000000000,-71.5000000000000
66.5000000000000,-71.5000000000000
67.5000000000000,-71.5000000000000
68.5000000000000,-71.5000000000000
69.5000000000000,-71.5000000000000
18.5000000000000,-70.5000000000000
19.5000000000000,-70.5000000000000
43.5000000000000,-70.5000000000000
44.5000000000000,-70.5000000000000
45.5000000000000,-70.5000000000000
46.5000000000000,-70.5000000000000
47.5000000000000,-70.5000000000000
48.5000000000000,-70.5000000000000
49.5000000000000,-70.5000000000000
50.5000000000000,-70.5000000000000
51.5000000000000,-70.5000000000000
52.5000000000000,-70.5000000000000
53.5000000000000,-70.5000000000000
54.5000000000000,-70.5000000000000
55.5000000000000,-70.5000000000000
56.5000000000000,-70.5000000000000
57.5000000000000,-70.5000000000000
58.5000000000000,-70.5000000000000
59.5000000000000,-70.5000000000000
60.5000000000000,-70.5000000000000
63.5000000000000,-70.5000000000000
64.5000000000000,-70.5000000000000
65.5000000000000,-70.5000000000000
67.5000000000000,-70.5000000000000
68.5000000000000,-70.5000000000000
69.5000000000000,-70.5000000000000
18.5000000000000,-69.5000000000000
44.5000000000000,-69.5000000000000
45.5000000000000,-69.5000000000000
46.5000000000000,-69.5000000000000
47.5000000000000,-69.5000000000000
48.5000000000000,-69.5000000000000
49.5000000000000,-69.5000000000000
50.5000000000000,-69.5000000000000
51.5000000000000,-69.5000000000000
52.5000000000000,-69.5000000000000
53.5000000000000,-69.5000000000000
54.5000000000000,-69.5000000000000
55.5000000000000,-69.5000000000000
56.5000000000000,-69.5000000000000
57.5000000000000,-69.5000000000000
58.5000000000000,-69.5000000000000
63.5000000000000,-69.5000000000000
64.5000000000000,-69.5000000000000
65.5000000000000,-69.5000000000000
66.5000000000000,-69.5000000000000
67.5000000000000,-69.5000000000000
68.5000000000000,-69.5000000000000
69.5000000000000,-69.5000000000000
44.5000000000000,-68.5000000000000
45.5000000000000,-68.5000000000000
46.5000000000000,-68.5000000000000
47.5000000000000,-68.5000000000000
48.5000000000000,-68.5000000000000
49.5000000000000,-68.5000000000000
50.5000000000000,-68.5000000000000
51.5000000000000,-68.5000000000000
52.5000000000000,-68.5000000000000
54.5000000000000,-68.5000000000000
55.5000000000000,-68.5000000000000
56.5000000000000,-68.5000000000000
57.5000000000000,-68.5000000000000
58.5000000000000,-68.5000000000000
62.5000000000000,-68.5000000000000
63.5000000000000,-68.5000000000000
64.5000000000000,-68.5000000000000
65.5000000000000,-68.5000000000000
66.5000000000000,-68.5000000000000
67.5000000000000,-68.5000000000000
68.5000000000000,-68.5000000000000
69.5000000000000,-68.5000000000000
45.5000000000000,-67.5000000000000
46.5000000000000,-67.5000000000000
47.5000000000000,-67.5000000000000
48.5000000000000,-67.5000000000000
49.5000000000000,-67.5000000000000
50.5000000000000,-67.5000000000000
51.5000000000000,-67.5000000000000
52.5000000000000,-67.5000000000000
53.5000000000000,-67.5000000000000
54.5000000000000,-67.5000000000000
55.5000000000000,-67.5000000000000
56.5000000000000,-67.5000000000000
57.5000000000000,-67.5000000000000
62.5000000000000,-67.5000000000000
63.5000000000000,-67.5000000000000
64.5000000000000,-67.5000000000000
65.5000000000000,-67.5000000000000
66.5000000000000,-67.5000000000000
67.5000000000000,-67.5000000000000
69.5000000000000,-67.5000000000000
45.5000000000000,-66.5000000000000
46.5000000000000,-66.5000000000000
47.5000000000000,-66.5000000000000
48.5000000000000,-66.5000000000000
50.5000000000000,-66.5000000000000
51.5000000000000,-66.5000000000000
52.5000000000000,-66.5000000000000
53.5000000000000,-66.5000000000000
54.5000000000000,-66.5000000000000
55.5000000000000,-66.5000000000000
56.5000000000000,-66.5000000000000
57.5000000000000,-66.5000000000000
58.5000000000000,-66.5000000000000
63.5000000000000,-66.5000000000000
64.5000000000000,-66.5000000000000
66.5000000000000,-66.5000000000000
67.5000000000000,-66.5000000000000
44.5000000000000,-65.5000000000000
45.5000000000000,-65.5000000000000
46.5000000000000,-65.5000000000000
47.5000000000000,-65.5000000000000
48.5000000000000,-65.5000000000000
50.5000000000000,-65.5000000000000
51.5000000000000,-65.5000000000000
52.5000000000000,-65.5000000000000
53.5000000000000,-65.5000000000000
55.5000000000000,-65.5000000000000
56.5000000000000,-65.5000000000000
57.5000000000000,-65.5000000000000
58.5000000000000,-65.5000000000000
63.5000000000000,-65.5000000000000
64.5000000000000,-65.5000000000000
66.5000000000000,-65.5000000000000
67.5000000000000,-65.5000000000000
44.5000000000000,-64.5000000000000
45.5000000000000,-64.5000000000000
46.5000000000000,-64.5000000000000
50.5000000000000,-64.5000000000000
51.5000000000000,-64.5000000000000
52.5000000000000,-64.5000000000000
53.5000000000000,-64.5000000000000
55.5000000000000,-64.5000000000000
56.5000000000000,-64.5000000000000
57.5000000000000,-64.5000000000000
58.5000000000000,-64.5000000000000
59.5000000000000,-64.5000000000000
65.5000000000000,-64.5000000000000
66.5000000000000,-64.5000000000000
67.5000000000000,-64.5000000000000
45.5000000000000,-63.5000000000000
50.5000000000000,-63.5000000000000
51.5000000000000,-63.5000000000000
52.5000000000000,-63.5000000000000
53.5000000000000,-63.5000000000000
54.5000000000000,-63.5000000000000
55.5000000000000,-63.5000000000000
56.5000000000000,-63.5000000000000
57.5000000000000,-63.5000000000000
58.5000000000000,-63.5000000000000
65.5000000000000,-63.5000000000000
66.5000000000000,-63.5000000000000
45.5000000000000,-62.5000000000000
50.5000000000000,-62.5000000000000
51.5000000000000,-62.5000000000000
52.5000000000000,-62.5000000000000
53.5000000000000,-62.5000000000000
54.5000000000000,-62.5000000000000
55.5000000000000,-62.5000000000000
56.5000000000000,-62.5000000000000
57.5000000000000,-62.5000000000000
66.5000000000000,-62.5000000000000
45.5000000000000,-61.5000000000000
50.5000000000000,-61.5000000000000
51.5000000000000,-61.5000000000000
52.5000000000000,-61.5000000000000
53.5000000000000,-61.5000000000000
54.5000000000000,-61.5000000000000
55.5000000000000,-61.5000000000000
50.5000000000000,-60.5000000000000
51.5000000000000,-60.5000000000000
52.5000000000000,-60.5000000000000
53.5000000000000,-60.5000000000000
54.5000000000000,-60.5000000000000
51.5000000000000,-59.5000000000000
52.5000000000000,-59.5000000000000
53.5000000000000,-59.5000000000000
54.5000000000000,-59.5000000000000
48.5000000000000,-58.5000000000000
51.5000000000000,-58.5000000000000
52.5000000000000,-58.5000000000000
53.5000000000000,-58.5000000000000
54.5000000000000,-58.5000000000000
48.5000000000000,-57.5000000000000
49.5000000000000,-57.5000000000000
51.5000000000000,-57.5000000000000
52.5000000000000,-57.5000000000000
53.5000000000000,-57.5000000000000
48.5000000000000,-56.5000000000000
49.5000000000000,-56.5000000000000
50.5000000000000,-56.5000000000000
51.5000000000000,-56.5000000000000
52.5000000000000,-56.5000000000000
53.5000000000000,-56.5000000000000
47.5000000000000,-55.5000000000000
48.5000000000000,-55.5000000000000
49.5000000000000,-55.5000000000000
48.5000000000000,-54.5000000000000
47.5000000000000,-53.5000000000000
67.5000000000000,-53.5000000000000
69.5000000000000,-53.5000000000000
65.5000000000000,-52.5000000000000
66.5000000000000,-52.5000000000000
67.5000000000000,-52.5000000000000
68.5000000000000,-52.5000000000000
64.5000000000000,-51.5000000000000
65.5000000000000,-51.5000000000000
66.5000000000000,-51.5000000000000
67.5000000000000,-51.5000000000000
63.5000000000000,-50.5000000000000
64.5000000000000,-50.5000000000000
65.5000000000000,-50.5000000000000
66.5000000000000,-50.5000000000000
67.5000000000000,-50.5000000000000
68.5000000000000,-50.5000000000000
69.5000000000000,-50.5000000000000
